<svg width="38" height="38" viewBox="0 0 38 38" fill="none" xmlns="http://www.w3.org/2000/svg">
<path d="M35.9815 0.0570251L24.5942 3.05993L13.815 5.90305C13.1352 6.08233 12.6666 6.65524 12.6666 7.30805V27.4588C11.3868 26.7467 9.77236 26.3076 7.9166 26.3076C3.22354 26.3076 0 29.1323 0 32.1537C0 35.1441 3.17688 37.9997 7.9166 37.9997C12.6097 37.9997 15.8332 35.175 15.8332 32.1537V14.2561L24.5942 11.9459L34.8331 9.24601V21.6128C33.5533 20.9006 31.9388 20.4616 30.0831 20.4616C25.39 20.4616 22.1665 23.2863 22.1665 26.3076C22.1665 29.2981 25.3434 32.1537 30.0831 32.1537C34.7762 32.1537 37.9997 29.329 37.9997 26.3076V1.46202C37.9997 0.488657 36.9895 -0.208969 35.9815 0.0570251Z" fill="white"/>
<path d="M35.3331 9.24619V8.59725L34.7056 8.76272L25.0943 11.2971V3.44536L36.109 0.54068L36.1091 0.540661C36.8533 0.344289 37.4997 0.869843 37.4997 1.4622V26.3078C37.4997 28.9436 34.6239 31.6539 30.0831 31.6539C25.4996 31.6539 22.6665 28.9158 22.6665 26.3078C22.6665 23.672 25.5423 20.9618 30.0831 20.9618C31.8601 20.9618 33.3899 21.3821 34.5899 22.0499L35.3331 22.4634V21.613V9.24619Z" fill="white" stroke="white"/>
</svg>
