<svg width="46" height="46" viewBox="0 0 46 46" fill="none" xmlns="http://www.w3.org/2000/svg">
<path d="M10.6608 32.9356C5.17407 32.9356 0.726562 28.488 0.726562 23.0013C0.726562 17.5145 5.17407 13.067 10.6608 13.067C16.1476 13.067 20.5951 17.5145 20.5951 23.0013C20.5907 28.4858 16.1454 32.9311 10.6608 32.9356ZM10.6608 16.5484C7.09293 16.5484 4.2006 19.4407 4.2006 23.0087C4.2006 26.5766 7.09293 29.4689 10.6608 29.4689C14.2288 29.4689 17.1211 26.5766 17.1211 23.0087C17.1211 23.0064 17.1211 23.0035 17.1211 23.0013C17.1166 19.4348 14.2273 16.5455 10.6608 16.541V16.5484Z" fill="white"/>
<path d="M20.5804 22.2621L20.4917 21.6264C20.1879 19.4104 19.1464 17.3615 17.5351 15.8093L16.2046 14.5379H29.7829L28.4524 15.8093C26.8411 17.3615 25.7996 19.4104 25.4958 21.6264L25.4071 22.2621H20.5804Z" fill="white"/>
<path d="M10.6609 29.4616C7.09301 29.4616 4.20068 26.5693 4.20068 23.0013C4.20068 19.4334 7.09301 16.5411 10.6609 16.5411C14.2288 16.5411 17.1212 19.4334 17.1212 23.0013C17.1167 26.5678 14.2274 29.4571 10.6609 29.4616Z" fill="white"/>
<path d="M35.3192 29.4615C31.7513 29.466 28.856 26.5766 28.8516 23.0087C28.8471 19.4408 31.7365 16.5455 35.3044 16.5411C38.8723 16.5366 41.7676 19.426 41.772 22.9939C41.772 22.9961 41.772 22.9991 41.772 23.0013C41.7683 26.5648 38.8827 29.4534 35.3192 29.4615Z" fill="white"/>
<path d="M35.319 32.9356C29.8323 32.9356 25.3848 28.488 25.3848 23.0013C25.3848 17.5145 29.8323 13.067 35.319 13.067C40.8058 13.067 45.2533 17.5145 45.2533 23.0013C45.2489 28.4858 40.8036 32.9311 35.319 32.9356ZM35.319 16.5484C31.7511 16.544 28.8559 19.4334 28.8514 23.0013C28.847 26.5692 31.7363 29.4645 35.3043 29.4689C38.8722 29.4733 41.7675 26.584 41.7719 23.0161C41.7719 23.0109 41.7719 23.0064 41.7719 23.0013C41.7682 19.4378 38.8825 16.5492 35.319 16.541V16.5484Z" fill="white"/>
<path d="M35.3191 12.3278C33.4106 12.3227 31.5361 12.8334 29.8937 13.8062H16.0862C11.0119 10.814 4.47334 12.5015 1.4805 17.5759C-1.51235 22.6502 0.175883 29.1888 5.2502 32.1809C10.3245 35.173 16.8631 33.4855 19.856 28.4112C20.8228 26.7717 21.3335 24.9039 21.3343 23.0005H24.6531C24.6531 28.8953 29.4317 33.674 35.3265 33.674C41.2213 33.674 46 28.8961 46 23.0013C46 17.1065 41.2213 12.3278 35.3265 12.3278C35.3243 12.3278 35.3213 12.3278 35.3191 12.3278ZM10.6608 32.1964C5.58282 32.1964 1.46571 28.0793 1.46571 23.0013C1.46571 17.9233 5.58282 13.8062 10.6608 13.8062C15.7388 13.8062 19.856 17.9233 19.856 23.0013C19.8515 28.0778 15.7374 32.192 10.6608 32.1964ZM21.2234 21.523C20.8989 19.1384 19.7761 16.9343 18.0376 15.2697H27.9423C26.2038 16.9343 25.0811 19.1384 24.7566 21.523H21.2234ZM35.3191 32.1964C30.2411 32.1964 26.124 28.0793 26.124 23.0013C26.124 17.9233 30.2411 13.8062 35.3191 13.8062C40.3971 13.8062 44.5142 17.9233 44.5142 23.0013C44.5098 28.0778 40.3957 32.192 35.3191 32.1964Z" fill="#3874BC"/>
<path d="M10.6608 15.8019C6.68489 15.8019 3.46143 19.0253 3.46143 23.0013C3.46143 26.9772 6.68489 30.2007 10.6608 30.2007C14.6367 30.2007 17.8602 26.9772 17.8602 23.0013C17.8558 19.0268 14.6353 15.8063 10.6608 15.8019ZM10.6608 28.715C7.50092 28.715 4.93974 26.1538 4.93974 22.9939C4.93974 19.834 7.50092 17.2728 10.6608 17.2728C13.8207 17.2728 16.3819 19.834 16.3819 22.9939C16.3819 22.9961 16.3819 22.9991 16.3819 23.0013C16.3819 26.1612 13.8207 28.7224 10.6608 28.7224V28.715Z" fill="#3874BC"/>
<path d="M35.3191 15.8019C31.3432 15.7974 28.1167 19.018 28.1123 22.9939C28.1079 26.9698 31.3284 30.1962 35.3043 30.2007C39.2802 30.2051 42.5067 26.9846 42.5111 23.0087C42.5111 23.0065 42.5111 23.0035 42.5111 23.0013C42.5067 19.0298 39.2906 15.81 35.3191 15.8019ZM35.3191 28.715C32.1592 28.7194 29.5951 26.1612 29.5906 23.0013C29.5862 19.8414 32.1444 17.2772 35.3043 17.2728C38.4642 17.2684 41.0283 19.8266 41.0328 22.9865C41.0328 22.9917 41.0328 22.9961 41.0328 23.0013C41.0328 26.1582 38.476 28.7179 35.3191 28.7224V28.715Z" fill="#3874BC"/>
</svg>
