<svg width="330" height="67" viewBox="0 0 330 67" fill="none" xmlns="http://www.w3.org/2000/svg">
<path d="M37.3 66.4H28.1C26.9 66.4 26 65.5 26 64.3C25.9 51.8 25.5 47.3 16.6 48.6C15.5 48.8 14.7 49.7 14.8 50.7L15.1 64.2C15.1 65.4 14.2 66.4 13 66.4H2.9C1.8 66.4 0.8 65.5 0.8 64.3L0 8.9C0 7.8 0.9 6.8 2 6.8L12.9 6.3C14.1 6.2 15.1 7.2 15.1 8.4L15 35C15 36.2 16 37.1 17.1 37.1C19.8 37 23.2 36.4 23.2 31.6C23.2 28 22.6 17.7 22.5 14.5C22.4 13.3 23.3 12.3 24.5 12.3L36 16.1C37.2 16 38.2 17 38.2 18.2L38.1 29.3C38.1 39.5 29.2 41.3 25.4 41.3C40.3 41.3 39.5 49.6 39.4 64.3C39.4 65.5 38.5 66.4 37.3 66.4Z" fill="white"/>
<path d="M58.6998 55V64.3C58.6998 65.2 57.9998 66 56.9998 66H48.4998C47.5998 66 46.7998 65.3 46.7998 64.3V25C46.7998 24.1 47.4998 23.4 48.3998 23.3L56.8998 26.3C57.8998 26.3 58.6998 27 58.6998 28V41C58.6998 42 59.4998 42.8 60.4998 42.7L63.1998 42.4C64.0998 42.3 64.6998 41.6 64.6998 40.7V28.5C64.6998 27.6 65.3998 26.9 66.2998 26.8L78.2998 24.8C79.2998 24.8 80.0998 25.5 80.0998 26.5L76.4998 64.3C76.4998 65.2 75.7998 66 74.7998 66H66.3998C65.4998 66 64.6998 65.3 64.6998 64.3V54.7C64.6998 53.7 63.8998 52.9 62.8998 53L60.1998 53.3C59.2998 53.4 58.6998 54.1 58.6998 55Z" fill="white"/>
<path d="M121.7 66.4H111.3C110.3 66.4 109.4 65.7 109.2 64.7L108.1 58.6C107.9 57.6 107 56.9 106 56.9H99.4001C98.4001 56.9 97.5001 57.6 97.3001 58.6L96.2001 64.7C96.0001 65.7 95.1001 66.4 94.1001 66.4H84.0001C82.6001 66.4 81.6001 65.1 81.9001 63.8L92.5001 18.3C92.7001 17.4 93.5001 16.7 94.5001 16.7L111.2 16.1C112.2 16.1 113.1 16.7 113.3 17.7L123.8 63.8C124.1 65.1 123.1 66.4 121.7 66.4ZM102 11C103 9.9 104 8.9 104.7 8.2C105.1 7.8 105.6 7.5 106.2 7.5H108.2C110.1 7.5 111 9.8 109.6 11.1L106.6 13.9C106.2 14.3 105.7 14.5 105.2 14.5H103.5C101.6 14.6 100.7 12.3 102 11ZM106.5 47.3L104.9 37.3C104.7 36.3 103.9 35.5 102.8 35.5C101.8 35.5 100.9 36.3 100.7 37.3L99.1001 47.3C98.9001 48.6 99.9001 49.7 101.2 49.7H104.3C105.7 49.7 106.7 48.5 106.5 47.3Z" fill="white"/>
<path d="M193.4 3.6L196.2 63.5C196.3 65.1 195 66.4 193.5 66.4H179.8C178.4 66.4 177.2 65.3 177.1 63.9L176.2 51.6C176 48.3 171.2 48.2 170.8 51.4L169.2 63.2C169 64.5 168 65.5 166.6 65.6L159.6 66C158.3 66.1 157.1 65.2 156.8 63.9L152.2 45.3C151.4 42.2 146.9 42.7 146.8 45.9L146.5 63.7C146.5 65.2 145.3 66.4 143.8 66.4H129.4C127.9 66.4 126.6 65.1 126.7 63.6L128.2 4.4C128.2 3 129.4 1.8 130.8 1.7L149.8 0.999998C151.2 0.899998 152.3 1.9 152.6 3.2C153.5 7.9 155.5 18.9 157.9 31.1C158.5 34.1 162.8 34 163.3 31L167.8 4C168 2.7 169.1 1.8 170.4 1.7L190.6 0.999998C192.1 0.999998 193.4 2.1 193.4 3.6Z" fill="white"/>
<path d="M226.3 10.6C234.1 10.1 238.8 12.7 241.6 16.4C246.6 22.8 245.7 32.2 245.7 32.2C245.7 41.3 242.7 46.8 238.6 49.7C233.3 53.6 226.4 53.6 222.7 53.2C221.3 53.1 220.1 54.2 220.1 55.6L220.2 64.1C220.2 65.4 219.2 66.5 217.9 66.5H206.8C205.5 66.5 204.5 65.5 204.5 64.2V13.7C204.5 12.5 205.5 11.4 206.7 11.4L226.3 10.6ZM219.2 28.4L219.4 37.9C219.4 39.2 220.5 40.2 221.8 40.2L225.4 40.1C225.4 40.1 230.6 40.2 230.3 35.3L230.5 29.6C230.4 26.6 228.7 25.5 226.3 25.7L221.4 26C220.2 26.1 219.2 27.2 219.2 28.4Z" fill="white"/>
<path d="M264.5 54V64.1C264.5 65.1 263.7 65.9 262.7 65.9H253.5C252.5 65.9 251.7 65.1 251.7 64.1V25.3C251.7 24.3 252.5 23.5 253.4 23.5L262.2 24.8C263.2 24.8 264.1 25.6 264.1 26.6L264.5 38.9C264.5 40 265.4 40.8 266.5 40.7L269.4 40.4C270.3 40.3 271 39.5 271 38.6V25.3C271 24.3 271.8 23.5 272.7 23.5L282 23C283 22.9 283.9 23.8 283.9 24.8V64.1C283.9 65.1 283.1 65.9 282.1 65.9H273C272 65.9 271.2 65.1 271.2 64.1V53.8C271.2 52.7 270.3 51.9 269.2 52L266.3 52.3C265.2 52.3 264.5 53.1 264.5 54Z" fill="white"/>
<path d="M327.9 66.4H317.5C316.5 66.4 315.6 65.7 315.4 64.7L314.3 58.6C314.1 57.6 313.2 56.9 312.2 56.9H305.6C304.6 56.9 303.7 57.6 303.5 58.6L302.4 64.7C302.2 65.7 301.3 66.4 300.3 66.4H289.9C288.5 66.4 287.5 65.1 287.8 63.8L298.4 18.3C298.6 17.4 299.4 16.7 300.4 16.7L317.1 16.1C318.1 16.1 319 16.7 319.2 17.7L329.7 63.8C330.2 65.1 329.2 66.4 327.9 66.4ZM308.1 11C309.1 9.9 310.1 8.9 310.8 8.2C311.2 7.8 311.7 7.5 312.3 7.5H314.3C316.2 7.5 317.1 9.8 315.7 11.1L312.7 13.9C312.3 14.3 311.8 14.5 311.3 14.5H309.6C307.8 14.6 306.8 12.3 308.1 11ZM312.6 47.3L311 37.3C310.8 36.3 310 35.5 308.9 35.5C307.9 35.5 307 36.3 306.8 37.3L305.2 47.3C305 48.6 306 49.7 307.3 49.7H310.4C311.8 49.7 312.8 48.5 312.6 47.3Z" fill="white"/>
</svg>
