<svg width="96" height="128" viewBox="0 0 96 128" fill="none" xmlns="http://www.w3.org/2000/svg">
<path d="M17.0688 123.586C8.22967 129.682 1.01611 127.244 1.01611 116.474V11.4205C1.01611 0.650941 8.22967 -1.78744 17.0688 4.30852L87.7819 52.873C96.6211 58.969 96.6211 68.9257 87.7819 74.9201L17.0688 123.586Z" fill="white"/>
<path d="M8.43274 127.853C7.11195 127.853 5.79116 127.549 4.67357 126.939C2.53998 125.821 0 123.078 0 116.373V11.4206C0 4.715 2.53998 1.97182 4.67357 0.854224C8.02635 -0.872965 12.5983 0.0414296 17.5767 3.39421L88.2898 51.9587C92.8618 55.1083 95.4018 59.2738 95.4018 63.8458C95.4018 68.4178 92.8618 72.5834 88.2898 75.7329L17.5767 124.297C14.3255 126.736 11.1759 127.853 8.43274 127.853ZM8.43274 2.07342C7.41675 2.07342 6.50236 2.27661 5.68956 2.68301C3.35278 3.9022 2.03199 6.95018 2.03199 11.4206V116.474C2.03199 120.945 3.25118 123.993 5.68956 125.212C8.33115 126.634 12.2935 125.72 16.5607 122.773L87.2738 74.2089C91.2362 71.4658 93.4714 67.8082 93.4714 64.049C93.4714 60.1882 91.2362 56.6323 87.2738 53.8891L16.5607 5.32459C13.5127 3.08941 10.7695 2.07342 8.43274 2.07342Z" fill="white"/>
</svg>
