<svg width="80" height="80" viewBox="0 0 80 80" fill="none" xmlns="http://www.w3.org/2000/svg">
<path d="M31.6667 16.6667H11.6667C10.7463 16.6667 10 15.9205 10 15C10 14.0795 10.7463 13.3333 11.6667 13.3333H31.6667C32.5872 13.3333 33.3334 14.0795 33.3334 15C33.3333 15.9205 32.5872 16.6667 31.6667 16.6667Z" fill="#FAFAFA"/>
<path d="M21.6667 16.6667C20.7463 16.6667 20 15.9205 20 15V8.33327C20 7.4128 20.7463 6.66655 21.6667 6.66655C22.5872 6.66655 23.3334 7.4128 23.3334 8.33327V15C23.3333 15.9205 22.5872 16.6667 21.6667 16.6667Z" fill="#FAFAFA"/>
<path d="M28.3333 36.6667C27.9175 36.6664 27.5169 36.5106 27.21 36.23C25.79 34.9367 13.3333 23.3333 13.3333 15C13.3333 14.0795 14.0795 13.3333 15 13.3333C15.9205 13.3333 16.6667 14.0795 16.6667 15C16.6667 20.8267 25.9 30.5233 29.4567 33.77C30.1361 34.3911 30.1831 35.4453 29.562 36.1247C29.2466 36.4697 28.8008 36.6662 28.3333 36.6667Z" fill="#FAFAFA"/>
<path d="M15 36.6667C14.0795 36.666 13.3339 35.9192 13.3347 34.9988C13.335 34.5313 13.5317 34.0855 13.8767 33.7702C17.4335 30.5235 26.6667 20.8269 26.6667 15.0002C26.6667 14.0797 27.413 13.3335 28.3335 13.3335C29.2538 13.3333 30 14.0795 30 15C30 23.3333 17.5433 34.9367 16.1233 36.23C15.8164 36.5106 15.4158 36.6664 15 36.6667Z" fill="#FAFAFA"/>
<path d="M68.3333 73.3333C67.6391 73.3333 67.0177 72.903 66.7733 72.2533L58.3333 49.7466L49.8933 72.2533C49.5686 73.1145 48.6071 73.5495 47.7458 73.2247C46.8857 72.9003 46.4505 71.9406 46.7733 71.0798L56.7733 44.4131C57.1907 43.5516 58.2272 43.1914 59.0888 43.6086C59.4399 43.7786 59.7233 44.062 59.8933 44.4131L69.8933 71.0798C70.2174 71.9414 69.7816 72.9025 68.92 73.2266C68.7329 73.2986 68.5339 73.3347 68.3333 73.3333Z" fill="#FAFAFA"/>
<path d="M65 66.6667H51.6667C50.7462 66.6667 50 65.9205 50 65C50 64.0795 50.7462 63.3333 51.6667 63.3333H65C65.9205 63.3333 66.6667 64.0795 66.6667 65C66.6667 65.9205 65.9205 66.6667 65 66.6667Z" fill="#FAFAFA"/>
<path d="M71.6667 33.3333C70.7462 33.3333 70 32.587 70 31.6665C69.9853 19.7065 60.2934 10.0147 48.3333 9.99999C47.4128 9.99999 46.6665 9.25374 46.6665 8.33327C46.6665 7.4128 47.4128 6.66655 48.3333 6.66655C62.1344 6.68124 73.3186 17.8655 73.3333 31.6665C73.3333 32.5872 72.5872 33.3333 71.6667 33.3333Z" fill="#455A64"/>
<path d="M71.6667 33.3332C71.2244 33.334 70.7998 33.159 70.4867 32.8465L63.82 26.1798C63.1805 25.5178 63.1989 24.4626 63.8609 23.8231C64.5069 23.1992 65.5308 23.1992 66.1767 23.8231L71.4867 29.1331L75.3334 23.9998C75.8848 23.2628 76.9294 23.1123 77.6664 23.6637C78.4034 24.2151 78.5539 25.2596 78.0025 25.9967C78.0017 25.9978 78.0009 25.9987 78.0001 25.9998L73.0001 32.6665C72.7108 33.055 72.2667 33.2984 71.7834 33.3332H71.6667Z" fill="#455A64"/>
<path d="M31.6667 73.3333C17.8656 73.3186 6.68141 62.1344 6.66673 48.3333C6.66673 47.4128 7.41298 46.6665 8.33344 46.6665C9.25391 46.6665 10 47.4128 10 48.3333C10.0147 60.2934 19.7066 69.9853 31.6667 70C32.5872 70 33.3334 70.7462 33.3334 71.6667C33.3333 72.5872 32.5872 73.3333 31.6667 73.3333Z" fill="#455A64"/>
<path d="M3.33327 56.6667C2.4128 56.6667 1.66655 55.9204 1.66655 55C1.66655 54.6393 1.78358 54.2884 1.99983 54L6.99983 47.3333C7.55124 46.5962 8.59561 46.4456 9.3328 46.997C9.39655 47.0447 9.45686 47.097 9.51327 47.1533L16.18 53.82C16.842 54.4595 16.8605 55.5145 16.2209 56.1767C15.5814 56.8387 14.5264 56.857 13.8642 56.2176C13.8503 56.2042 13.8367 56.1906 13.8233 56.1767L8.51327 50.87L4.66671 56C4.35186 56.4197 3.85796 56.6667 3.33327 56.6667Z" fill="#455A64"/>
<path d="M38.3333 43.3333H1.66672C0.74625 43.3333 0 42.5872 0 41.6667V1.66672C0 0.74625 0.74625 0 1.66672 0H41.6667C42.5872 0 43.3334 0.74625 43.3334 1.66672V38.3334C43.3334 39.2539 42.5872 40.0002 41.6667 40.0002H40V41.6669C40 42.5872 39.2537 43.3333 38.3333 43.3333ZM3.33328 40H36.6666V38.3333C36.6666 37.4128 37.4128 36.6666 38.3333 36.6666H40V3.33328H3.33328V40Z" fill="white"/>
<path d="M78.3333 80H38.3333C37.4128 80 36.6665 79.2537 36.6665 78.3333V38.3333C36.6665 37.4128 37.4128 36.6665 38.3333 36.6665H78.3333C79.2537 36.6665 80 37.4128 80 38.3333V78.3333C80 79.2537 79.2537 80 78.3333 80ZM40 76.6667H76.6667V40H40V76.6667Z" fill="white"/>
<path d="M31.6667 16.6667H11.6667C10.7463 16.6667 10 15.9205 10 15C10 14.0795 10.7463 13.3333 11.6667 13.3333H31.6667C32.5872 13.3333 33.3334 14.0795 33.3334 15C33.3333 15.9205 32.5872 16.6667 31.6667 16.6667Z" fill="white"/>
<path d="M21.6667 16.6667C20.7463 16.6667 20 15.9205 20 15V8.33327C20 7.4128 20.7463 6.66655 21.6667 6.66655C22.5872 6.66655 23.3334 7.4128 23.3334 8.33327V15C23.3333 15.9205 22.5872 16.6667 21.6667 16.6667Z" fill="white"/>
<path d="M28.3333 36.6667C27.9175 36.6664 27.5169 36.5106 27.21 36.23C25.79 34.9367 13.3333 23.3333 13.3333 15C13.3333 14.0795 14.0795 13.3333 15 13.3333C15.9205 13.3333 16.6667 14.0795 16.6667 15C16.6667 20.8267 25.9 30.5233 29.4567 33.77C30.1361 34.3911 30.1831 35.4453 29.562 36.1247C29.2466 36.4697 28.8008 36.6662 28.3333 36.6667Z" fill="white"/>
<path d="M15 36.6667C14.0795 36.666 13.3339 35.9192 13.3347 34.9988C13.335 34.5313 13.5317 34.0855 13.8767 33.7702C17.4335 30.5235 26.6667 20.8269 26.6667 15.0002C26.6667 14.0797 27.413 13.3335 28.3335 13.3335C29.2538 13.3333 30 14.0795 30 15C30 23.3333 17.5433 34.9367 16.1233 36.23C15.8164 36.5106 15.4158 36.6664 15 36.6667Z" fill="white"/>
<path d="M68.3333 73.3333C67.6391 73.3333 67.0177 72.903 66.7733 72.2533L58.3333 49.7466L49.8933 72.2533C49.5686 73.1145 48.6071 73.5495 47.7458 73.2247C46.8857 72.9003 46.4505 71.9406 46.7733 71.0798L56.7733 44.4131C57.1907 43.5516 58.2272 43.1914 59.0888 43.6086C59.4399 43.7786 59.7233 44.062 59.8933 44.4131L69.8933 71.0798C70.2174 71.9414 69.7816 72.9025 68.92 73.2266C68.7329 73.2986 68.5339 73.3347 68.3333 73.3333Z" fill="white"/>
<path d="M65 66.6667H51.6667C50.7462 66.6667 50 65.9205 50 65C50 64.0795 50.7462 63.3333 51.6667 63.3333H65C65.9205 63.3333 66.6667 64.0795 66.6667 65C66.6667 65.9205 65.9205 66.6667 65 66.6667Z" fill="white"/>
<path d="M71.6667 33.3333C70.7462 33.3333 70 32.587 70 31.6665C69.9853 19.7065 60.2934 10.0147 48.3333 9.99999C47.4128 9.99999 46.6665 9.25374 46.6665 8.33327C46.6665 7.4128 47.4128 6.66655 48.3333 6.66655C62.1344 6.68124 73.3186 17.8655 73.3333 31.6665C73.3333 32.5872 72.5872 33.3333 71.6667 33.3333Z" fill="white"/>
<path d="M71.6667 33.3333C71.2244 33.3341 70.7998 33.1591 70.4867 32.8466L63.82 26.1799C63.1805 25.5178 63.1989 24.4627 63.8609 23.8231C64.5069 23.1992 65.5308 23.1992 66.1767 23.8231L71.4867 29.1331L75.3334 23.9999C75.8848 23.2628 76.9294 23.1124 77.6664 23.6638C78.4034 24.2152 78.5539 25.2597 78.0025 25.9967C78.0017 25.9978 78.0009 25.9988 78.0002 25.9999L73.0002 32.6666C72.7108 33.055 72.2667 33.2984 71.7834 33.3333H71.6667Z" fill="white"/>
<path d="M31.6667 73.3333C17.8656 73.3186 6.68141 62.1344 6.66673 48.3333C6.66673 47.4128 7.41298 46.6666 8.33344 46.6666C9.25391 46.6666 10 47.4128 10 48.3333C10.0147 60.2934 19.7066 69.9853 31.6667 70C32.5872 70 33.3334 70.7463 33.3334 71.6667C33.3333 72.5872 32.5872 73.3333 31.6667 73.3333Z" fill="white"/>
<path d="M3.33327 56.6667C2.4128 56.6667 1.66655 55.9205 1.66655 55C1.66655 54.6394 1.78358 54.2884 1.99983 54L6.99983 47.3333C7.55124 46.5963 8.59561 46.4456 9.3328 46.997C9.39655 47.0447 9.45686 47.097 9.51327 47.1533L16.18 53.82C16.842 54.4595 16.8605 55.5145 16.2209 56.1767C15.5814 56.8388 14.5264 56.857 13.8642 56.2177C13.8503 56.2042 13.8367 56.1906 13.8233 56.1767L8.51327 50.87L4.66671 56C4.35186 56.4197 3.85796 56.6667 3.33327 56.6667Z" fill="white"/>
</svg>
