<svg width="50" height="64" viewBox="0 0 50 64" fill="none" xmlns="http://www.w3.org/2000/svg">
<rect width="21" height="64" rx="8" fill="white"/>
<rect x="29" width="21" height="64" rx="8" fill="white"/>
</svg>
