<svg width="38" height="38" viewBox="0 0 38 38" fill="none" xmlns="http://www.w3.org/2000/svg">
<path d="M26.566 29.539C26.133 29.539 25.699 29.3382 25.3562 28.9319C24.6344 28.0764 24.591 26.6339 25.2594 25.7099C26.5837 23.8794 27.313 21.4963 27.313 18.9999C27.313 16.5034 26.5837 14.1204 25.2594 12.2898C24.591 11.3658 24.6344 9.92324 25.3562 9.06778C26.0781 8.21213 27.205 8.2678 27.8734 9.19156C29.8093 11.8677 30.8755 15.3511 30.8755 18.9999C30.8755 22.6487 29.8093 26.1321 27.8734 28.8082C27.5223 29.2934 27.0448 29.539 26.566 29.539Z" fill="white"/>
<path d="M31.335 36.3457C30.8782 36.3457 30.4216 36.1223 30.0737 35.6757C29.379 34.7841 29.3806 33.3405 30.0771 32.4514C32.8893 28.8616 34.438 24.0844 34.438 18.9999C34.438 13.9154 32.8893 9.13822 30.0771 5.54842C29.3806 4.65932 29.379 3.21563 30.0737 2.32416C30.7683 1.43241 31.8961 1.43061 32.5927 2.3197C36.08 6.77124 38.0005 12.6951 38.0005 18.9999C38.0005 25.3048 36.08 31.2286 32.5927 35.6802C32.2451 36.1239 31.79 36.3457 31.335 36.3457Z" fill="white"/>
<path d="M7.34806 9.88H3.26607C1.46251 9.88 0.000488281 11.7514 0.000488281 14.0599V23.9398C0.000488281 26.2484 1.46251 28.1197 3.26607 28.1197H7.34806C7.55297 28.1197 7.71914 27.907 7.71914 27.6447V10.355C7.71914 10.0927 7.55297 9.88 7.34806 9.88Z" fill="white"/>
<path d="M20.7816 0.000183105H19.0004C18.6093 0.000183105 18.2291 0.164911 17.9184 0.469001L10.2399 7.98491C10.1481 8.07478 10.0942 8.21423 10.0942 8.36224V29.6376C10.0942 29.7856 10.1481 29.9251 10.2399 30.015L17.9184 37.5308C18.2291 37.8349 18.6093 37.9997 19.0005 37.9997H20.7816C21.7654 37.9997 22.5628 36.979 22.5628 35.7197V2.28015C22.5628 1.02094 21.7654 0.000183105 20.7816 0.000183105Z" fill="white"/>
</svg>
