<svg width="18" height="18" viewBox="0 0 18 18" fill="none" xmlns="http://www.w3.org/2000/svg">
<g clip-path="url(#clip0)">
<path d="M5.35285 7.61949C5.35917 7.58047 5.3652 7.54168 5.37095 7.50314C5.38956 7.5202 5.40832 7.53727 5.42724 7.55434L5.35285 7.61949Z" stroke="white" stroke-width="3"/>
<path d="M12.5021 7.55434C12.5211 7.53727 12.5398 7.5202 12.5584 7.50314C12.5642 7.54168 12.5702 7.58047 12.5765 7.61949L12.5021 7.55434Z" stroke="white" stroke-width="3"/>
<mask id="path-3-inside-1" fill="white">
<path d="M15.3784 12.3676C16.0757 9.94012 17.3688 8.01381 17.3688 8.01381L16.3257 7.06789C11.1839 11.3365 9.46195 3.86633 9.46195 3.86633H8.46741C8.46741 3.86633 6.74544 11.3365 1.6037 7.06789L0.560547 8.01381C0.560547 8.01381 1.85364 9.94012 2.551 12.3676L8.96468 13.7801L15.3784 12.3676Z"/>
</mask>
<path d="M15.3784 12.3676C16.0757 9.94012 17.3688 8.01381 17.3688 8.01381L16.3257 7.06789C11.1839 11.3365 9.46195 3.86633 9.46195 3.86633H8.46741C8.46741 3.86633 6.74544 11.3365 1.6037 7.06789L0.560547 8.01381C0.560547 8.01381 1.85364 9.94012 2.551 12.3676L8.96468 13.7801L15.3784 12.3676Z" fill="white"/>
<path d="M15.3784 12.3676L17.0991 20.1803L21.7519 19.1556L23.0674 14.5765L15.3784 12.3676ZM17.3688 8.01381L24.011 12.4726L27.8646 6.73198L22.7427 2.08751L17.3688 8.01381ZM16.3257 7.06789L21.6996 1.14159L16.557 -3.5217L11.2156 0.912599L16.3257 7.06789ZM9.46195 3.86633L17.2575 2.06935L15.8276 -4.13367H9.46195V3.86633ZM8.46741 3.86633V-4.13367H2.10172L0.671842 2.06935L8.46741 3.86633ZM1.6037 7.06789L6.71373 0.912599L1.3724 -3.5217L-3.77022 1.14159L1.6037 7.06789ZM0.560547 8.01381L-4.81337 2.08751L-9.93523 6.73198L-6.08169 12.4726L0.560547 8.01381ZM2.551 12.3676L-5.138 14.5765L-3.82251 19.1556L0.830292 20.1803L2.551 12.3676ZM8.96468 13.7801L7.24397 21.5929L8.96468 21.9719L10.6854 21.5929L8.96468 13.7801ZM23.0674 14.5765C23.2211 14.0414 23.4724 13.4693 23.7245 12.9871C23.8426 12.7614 23.9427 12.5897 24.0018 12.492C24.0309 12.4439 24.0484 12.4163 24.0514 12.4117C24.0528 12.4095 24.0504 12.4132 24.0439 12.4232C24.0406 12.4282 24.0363 12.4348 24.0308 12.443C24.0281 12.4471 24.0251 12.4516 24.0218 12.4565C24.0201 12.459 24.0184 12.4616 24.0166 12.4642C24.0157 12.4656 24.0148 12.4669 24.0139 12.4683C24.0134 12.469 24.0127 12.4701 24.0125 12.4704C24.0118 12.4715 24.011 12.4726 17.3688 8.01381C10.7266 3.55503 10.7258 3.55612 10.7251 3.55722C10.7249 3.55759 10.7241 3.5587 10.7236 3.55945C10.7226 3.56096 10.7216 3.5625 10.7205 3.56407C10.7184 3.56722 10.7162 3.57049 10.7139 3.57389C10.7094 3.5807 10.7045 3.58801 10.6993 3.59584C10.689 3.6115 10.6773 3.6292 10.6643 3.6489C10.6385 3.68829 10.6077 3.73577 10.5724 3.79096C10.5019 3.90121 10.413 4.04305 10.3099 4.21349C10.1048 4.55276 9.83807 5.01439 9.54565 5.57367C8.97689 6.66148 8.233 8.2663 7.68936 10.1586L23.0674 14.5765ZM22.7427 2.08751L21.6996 1.14159L10.9517 12.9942L11.9949 13.9401L22.7427 2.08751ZM11.2156 0.912599C10.9095 1.16674 11.9451 0.188602 13.9833 0.419159C15.969 0.643783 16.9998 1.80569 17.1988 2.05309C17.4005 2.30382 17.3821 2.36755 17.2857 2.11485C17.2552 2.03493 17.2346 1.9687 17.2262 1.9396C17.2225 1.92707 17.2232 1.92861 17.2282 1.94788C17.2307 1.95767 17.2344 1.97231 17.2393 1.99228C17.2417 2.00227 17.2445 2.01365 17.2475 2.02646C17.249 2.03287 17.2506 2.03964 17.2523 2.04678C17.2531 2.05036 17.254 2.05402 17.2548 2.05778C17.2553 2.05966 17.2559 2.06256 17.2562 2.0635C17.2568 2.06641 17.2575 2.06935 9.46195 3.86633C1.66638 5.66331 1.66707 5.66631 1.66777 5.66934C1.66801 5.67039 1.66872 5.67346 1.66921 5.67556C1.67019 5.67978 1.6712 5.68412 1.67225 5.6886C1.67434 5.69755 1.67657 5.70702 1.67894 5.717C1.68367 5.73696 1.68895 5.75899 1.69481 5.78299C1.70651 5.83096 1.72051 5.88702 1.73691 5.95049C1.76962 6.0771 1.81232 6.23496 1.8658 6.41836C1.97157 6.78111 2.1257 7.26513 2.33698 7.81884C2.7241 8.8334 3.45755 10.4979 4.73249 12.0826C6.00473 13.6639 8.43012 15.893 12.1848 16.3178C15.9919 16.7484 19.1709 15.1033 21.4357 13.2232L11.2156 0.912599ZM9.46195 -4.13367H8.46741V11.8663H9.46195V-4.13367ZM8.46741 3.86633C0.671842 2.06935 0.67252 2.06641 0.673194 2.0635C0.67341 2.06256 0.674082 2.05966 0.674517 2.05778C0.67539 2.05402 0.676244 2.05036 0.677079 2.04678C0.678749 2.03964 0.680344 2.03287 0.681863 2.02646C0.6849 2.01365 0.687639 2.00227 0.690077 1.99228C0.694946 1.97231 0.698654 1.95767 0.701184 1.94788C0.706164 1.92861 0.706847 1.92707 0.703194 1.9396C0.69471 1.9687 0.674141 2.03493 0.643646 2.11485C0.547224 2.36755 0.528821 2.30382 0.730544 2.05309C0.929581 1.80569 1.9604 0.643783 3.94609 0.419159C5.98423 0.188602 7.01986 1.16674 6.71373 0.912599L-3.50633 13.2232C-1.24159 15.1033 1.93744 16.7484 5.74456 16.3178C9.49923 15.893 11.9246 13.6639 13.1969 12.0826C14.4718 10.4979 15.2052 8.8334 15.5924 7.81884C15.8037 7.26513 15.9578 6.78111 16.0636 6.41836C16.117 6.23496 16.1597 6.0771 16.1924 5.95049C16.2088 5.88702 16.2228 5.83096 16.2345 5.78299C16.2404 5.75899 16.2457 5.73696 16.2504 5.717C16.2528 5.70702 16.255 5.69755 16.2571 5.6886C16.2582 5.68412 16.2592 5.67978 16.2601 5.67556C16.2606 5.67346 16.2613 5.67039 16.2616 5.66934C16.2623 5.66631 16.263 5.66331 8.46741 3.86633ZM-3.77022 1.14159L-4.81337 2.08751L5.93447 13.9401L6.97762 12.9942L-3.77022 1.14159ZM0.560547 8.01381C-6.08169 12.4726 -6.08241 12.4715 -6.08313 12.4704C-6.08336 12.4701 -6.08407 12.469 -6.08454 12.4683C-6.08547 12.4669 -6.08638 12.4656 -6.08728 12.4642C-6.08907 12.4616 -6.09079 12.459 -6.09243 12.4565C-6.09573 12.4516 -6.09873 12.4471 -6.10146 12.443C-6.10691 12.4348 -6.11125 12.4282 -6.11453 12.4232C-6.12108 12.4132 -6.12344 12.4095 -6.12202 12.4117C-6.11909 12.4163 -6.10151 12.4439 -6.07244 12.492C-6.01332 12.5897 -5.9132 12.7614 -5.79518 12.9871C-5.54306 13.4693 -5.29173 14.0414 -5.138 14.5765L10.24 10.1586C9.69636 8.2663 8.95247 6.66148 8.3837 5.57367C8.09128 5.01439 7.82455 4.55276 7.61942 4.21349C7.51636 4.04305 7.42748 3.90121 7.35697 3.79096C7.32167 3.73577 7.29084 3.68829 7.26501 3.6489C7.25209 3.6292 7.2404 3.6115 7.23001 3.59584C7.22482 3.58801 7.21995 3.5807 7.21541 3.57389C7.21314 3.57049 7.21095 3.56722 7.20884 3.56407C7.20779 3.5625 7.20676 3.56096 7.20575 3.55945C7.20525 3.5587 7.2045 3.55759 7.20425 3.55722C7.20351 3.55612 7.20278 3.55503 0.560547 8.01381ZM0.830292 20.1803L7.24397 21.5929L10.6854 5.96736L4.2717 4.5548L0.830292 20.1803ZM10.6854 21.5929L17.0991 20.1803L13.6577 4.5548L7.24397 5.96736L10.6854 21.5929Z" fill="white" mask="url(#path-3-inside-1)"/>
<mask id="path-5-inside-2" fill="white">
<path d="M15.3786 12.3676C15.2068 12.9628 15.0716 13.5882 14.9999 14.2227C14.9377 14.7753 14.4709 15.193 13.915 15.193H4.01492C3.45902 15.193 2.99223 14.7753 2.93002 14.2227C2.85834 13.5882 2.72307 12.9628 2.55127 12.3676H15.3786Z"/>
</mask>
<path d="M15.3786 12.3676C15.2068 12.9628 15.0716 13.5882 14.9999 14.2227C14.9377 14.7753 14.4709 15.193 13.915 15.193H4.01492C3.45902 15.193 2.99223 14.7753 2.93002 14.2227C2.85834 13.5882 2.72307 12.9628 2.55127 12.3676H15.3786Z" fill="white"/>
<path d="M15.3786 12.3676L23.0648 14.5862L26.0144 4.36761H15.3786V12.3676ZM14.9999 14.2227L7.05046 13.3245L7.05009 13.3277L14.9999 14.2227ZM2.93002 14.2227L10.8798 13.3277L10.8794 13.3245L2.93002 14.2227ZM2.55127 12.3676V4.36761H-8.08452L-5.13494 14.5862L2.55127 12.3676ZM7.69243 10.149C7.41945 11.0947 7.18132 12.1663 7.05046 13.3245L22.9493 15.1208C22.9618 15.0101 22.9942 14.8309 23.0648 14.5862L7.69243 10.149ZM7.05009 13.3277C7.44265 9.84063 10.3922 7.19302 13.915 7.19302V23.193C18.5496 23.193 22.4327 19.7099 22.9497 15.1176L7.05009 13.3277ZM13.915 7.19302H4.01492V23.193H13.915V7.19302ZM4.01492 7.19302C7.53775 7.19302 10.4873 9.84063 10.8798 13.3277L-5.01976 15.1176C-4.50278 19.7099 -0.61972 23.193 4.01492 23.193V7.19302ZM10.8794 13.3245C10.7486 12.1663 10.5105 11.0947 10.2375 10.149L-5.13494 14.5862C-5.06432 14.8309 -5.03191 15.0101 -5.0194 15.1208L10.8794 13.3245ZM2.55127 20.3676H15.3786V4.36761H2.55127V20.3676Z" fill="white" mask="url(#path-5-inside-2)"/>
<path d="M5.43376 4.80336C5.43376 5.366 4.97769 5.82207 4.41506 5.82207C3.85255 5.82207 3.39648 5.366 3.39648 4.80336C3.39648 4.24086 3.85255 3.78479 4.41506 3.78479C4.97769 3.78479 5.43376 4.24086 5.43376 4.80336Z" fill="white" stroke="white" stroke-width="8"/>
<mask id="path-8-inside-3" fill="white">
<path d="M4.17957 4.78127C4.05473 4.42874 4.13576 4.05356 4.3596 3.78632C4.26498 3.79153 4.1694 3.80994 4.07547 3.84317C3.54511 4.0309 3.26743 4.61304 3.45515 5.1434C3.64288 5.67377 4.22502 5.95145 4.75539 5.76372C4.93323 5.70082 5.0825 5.59329 5.19553 5.45844C4.75552 5.48274 4.33406 5.2177 4.17957 4.78127Z"/>
</mask>
<path d="M4.17957 4.78127C4.05473 4.42874 4.13576 4.05356 4.3596 3.78632C4.26498 3.79153 4.1694 3.80994 4.07547 3.84317C3.54511 4.0309 3.26743 4.61304 3.45515 5.1434C3.64288 5.67377 4.22502 5.95145 4.75539 5.76372C4.93323 5.70082 5.0825 5.59329 5.19553 5.45844C4.75552 5.48274 4.33406 5.2177 4.17957 4.78127Z" fill="white"/>
<path d="M4.17957 4.78127L11.721 2.11163L11.7207 2.11087L4.17957 4.78127ZM4.3596 3.78632L10.4924 8.92327L22.3368 -5.21733L3.91906 -4.20154L4.3596 3.78632ZM4.07547 3.84317L1.40714 -3.69871L1.40606 -3.69833L4.07547 3.84317ZM3.45515 5.1434L10.9967 2.474V2.474L3.45515 5.1434ZM4.75539 5.76372L2.08795 -1.77848L2.08598 -1.77779L4.75539 5.76372ZM5.19553 5.45844L11.3269 10.5971L23.1812 -3.54735L4.75425 -2.52939L5.19553 5.45844ZM11.7207 2.11087C12.5807 4.53936 12.0081 7.11373 10.4924 8.92327L-1.77323 -1.35064C-3.73663 0.993389 -4.4712 4.31812 -3.36159 7.45166L11.7207 2.11087ZM3.91906 -4.20154C3.08521 -4.15556 2.23805 -3.99269 1.40714 -3.69871L6.7438 11.3851C6.10076 11.6126 5.44476 11.7386 4.80015 11.7742L3.91906 -4.20154ZM1.40606 -3.69833C-3.29042 -2.03596 -5.74797 3.11844 -4.08635 7.8128L10.9967 2.474C12.2828 6.10763 10.3806 10.0978 6.74488 11.3847L1.40606 -3.69833ZM-4.08635 7.8128C-2.42398 12.5093 2.73042 14.9669 7.42479 13.3052L2.08598 -1.77779C5.71962 -3.06396 9.70975 -1.16175 10.9967 2.474L-4.08635 7.8128ZM7.42282 13.3059C8.99473 12.75 10.3263 11.7911 11.3269 10.5971L-0.935892 0.319786C-0.161281 -0.604477 0.871721 -1.34834 2.08795 -1.77848L7.42282 13.3059ZM4.75425 -2.52939C7.76087 -2.69548 10.6572 -0.893506 11.721 2.11163L-3.36186 7.4509C-1.98906 11.3289 1.75018 13.661 5.6368 13.4463L4.75425 -2.52939Z" fill="white" mask="url(#path-8-inside-3)"/>
<path d="M14.5334 4.80336C14.5334 5.366 14.0773 5.82207 13.5148 5.82207C12.9522 5.82207 12.4961 5.366 12.4961 4.80336C12.4961 4.24086 12.9522 3.78479 13.5148 3.78479C14.0773 3.78479 14.5334 4.24086 14.5334 4.80336Z" fill="white" stroke="white" stroke-width="8"/>
<mask id="path-11-inside-4" fill="white">
<path d="M13.8989 5.40154C13.3686 5.21381 13.0908 4.63153 13.2786 4.1013C13.3206 3.98279 13.3822 3.87704 13.4586 3.78613C13.0606 3.80811 12.6956 4.06409 12.5543 4.46344C12.3665 4.99381 12.6442 5.57594 13.1746 5.76367C13.5864 5.90952 14.0295 5.77452 14.2948 5.45853C14.1642 5.46581 14.03 5.44782 13.8989 5.40154Z"/>
</mask>
<path d="M13.8989 5.40154L11.2289 12.9428L11.2367 12.9456L13.8989 5.40154ZM13.2786 4.1013L5.73851 1.42777L5.73727 1.43128L13.2786 4.1013ZM13.4586 3.78613L19.5846 8.93124L31.4703 -5.22049L13.0176 -4.2017L13.4586 3.78613ZM12.5543 4.46344L20.0958 7.13285L20.096 7.13211L12.5543 4.46344ZM13.1746 5.76367L15.845 -1.77746L15.844 -1.77783L13.1746 5.76367ZM14.2948 5.45853L20.4215 10.6028L32.3114 -3.55796L13.8496 -2.52908L14.2948 5.45853ZM16.5689 -2.13975C20.203 -0.853069 22.1069 3.13606 20.8198 6.77133L5.73727 1.43128C4.07473 6.127 6.53424 11.2807 11.2289 12.9428L16.5689 -2.13975ZM20.8186 6.77483C20.5351 7.57422 20.1125 8.30269 19.5846 8.93124L7.33259 -1.35897C6.65197 -0.5486 6.106 0.391353 5.73851 1.42777L20.8186 6.77483ZM13.0176 -4.2017C9.51124 -4.00812 6.26862 -1.75504 5.01251 1.79477L20.096 7.13211C19.1226 9.88322 16.61 11.6243 13.8996 11.774L13.0176 -4.2017ZM5.01277 1.79403C3.35114 6.48841 5.80872 11.6428 10.5052 13.3052L15.844 -1.77783C19.4797 -0.490923 21.382 3.4992 20.0958 7.13285L5.01277 1.79403ZM10.5041 13.3048C14.1641 14.6008 18.0816 13.3896 20.4215 10.6028L8.16805 0.314296C9.97737 -1.84059 13.0088 -2.78181 15.845 -1.77746L10.5041 13.3048ZM13.8496 -2.52908C14.7602 -2.57982 15.6829 -2.45239 16.561 -2.14253L11.2367 12.9456C12.3771 13.348 13.5682 13.5114 14.7399 13.4461L13.8496 -2.52908Z" fill="white" mask="url(#path-11-inside-4)"/>
<path d="M9.98321 3.86636C9.98321 4.429 9.52715 4.88507 8.96451 4.88507C8.40187 4.88507 7.9458 4.429 7.9458 3.86636C7.9458 3.30373 8.40187 2.84766 8.96451 2.84766C9.52715 2.84766 9.98321 3.30373 9.98321 3.86636Z" fill="white" stroke="white" stroke-width="8"/>
<mask id="path-14-inside-5" fill="white">
<path d="M9.68892 4.52281C9.12628 4.52281 8.67021 4.06674 8.67021 3.5041C8.67021 3.25471 8.75989 3.02634 8.90875 2.84918C8.37207 2.87816 7.9458 3.32242 7.9458 3.86638C7.9458 4.42888 8.40187 4.88495 8.96451 4.88495C9.27762 4.88495 9.55763 4.74364 9.74453 4.5213C9.72613 4.52226 9.70759 4.52281 9.68892 4.52281Z"/>
</mask>
<path d="M9.68892 4.52281C9.12628 4.52281 8.67021 4.06674 8.67021 3.5041C8.67021 3.25471 8.75989 3.02634 8.90875 2.84918C8.37207 2.87816 7.9458 3.32242 7.9458 3.86638C7.9458 4.42888 8.40187 4.88495 8.96451 4.88495C9.27762 4.88495 9.55763 4.74364 9.74453 4.5213C9.72613 4.52226 9.70759 4.52281 9.68892 4.52281Z" fill="white"/>
<path d="M8.90875 2.84918L15.0335 7.99583L26.9071 -6.13423L8.47744 -5.13918L8.90875 2.84918ZM9.74453 4.5213L15.8682 9.66914L27.7193 -4.42856L9.3272 -3.46781L9.74453 4.5213ZM9.68892 -3.47719C13.5446 -3.47719 16.6702 -0.351522 16.6702 3.5041H0.67021C0.67021 8.48501 4.70799 12.5228 9.68892 12.5228V-3.47719ZM16.6702 3.5041C16.6702 5.20892 16.0491 6.7872 15.0335 7.99583L2.78404 -2.29746C1.4707 -0.734531 0.67021 1.30051 0.67021 3.5041H16.6702ZM8.47744 -5.13918C3.72026 -4.88233 -0.0541992 -0.952267 -0.0541992 3.86638H15.9458C15.9458 7.5971 13.0239 10.6387 9.34006 10.8375L8.47744 -5.13918ZM-0.0541992 3.86638C-0.0541992 8.84784 3.98428 12.8849 8.96451 12.8849V-3.11505C12.8195 -3.11505 15.9458 0.00991273 15.9458 3.86638H-0.0541992ZM8.96451 12.8849C11.741 12.8849 14.2276 11.6208 15.8682 9.66914L3.62083 -0.626535C4.88766 -2.13352 6.81427 -3.11505 8.96451 -3.11505V12.8849ZM9.3272 -3.46781C9.42936 -3.47314 9.5511 -3.47719 9.68892 -3.47719V12.5228C9.86408 12.5228 10.0229 12.5177 10.1619 12.5104L9.3272 -3.46781Z" fill="white" mask="url(#path-14-inside-5)"/>
<path d="M17.9651 7.55788C17.9651 8.12051 17.5091 8.57658 16.9464 8.57658C16.3838 8.57658 15.9277 8.12051 15.9277 7.55788C15.9277 6.99538 16.3838 6.53931 16.9464 6.53931C17.5091 6.53931 17.9651 6.99538 17.9651 7.55788Z" fill="white" stroke="white" stroke-width="8"/>
<mask id="path-17-inside-6" fill="white">
<path d="M17.6708 8.21446C17.1082 8.21446 16.6521 7.75839 16.6521 7.19576C16.6521 6.94637 16.742 6.71799 16.8908 6.54083C16.3541 6.56981 15.9277 7.01407 15.9277 7.55789C15.9277 8.12053 16.3838 8.5766 16.9464 8.5766C17.2597 8.5766 17.5396 8.43515 17.7265 8.21295C17.7081 8.21391 17.6895 8.21446 17.6708 8.21446Z"/>
</mask>
<path d="M17.6708 8.21446C17.1082 8.21446 16.6521 7.75839 16.6521 7.19576C16.6521 6.94637 16.742 6.71799 16.8908 6.54083C16.3541 6.56981 15.9277 7.01407 15.9277 7.55789C15.9277 8.12053 16.3838 8.5766 16.9464 8.5766C17.2597 8.5766 17.5396 8.43515 17.7265 8.21295C17.7081 8.21391 17.6895 8.21446 17.6708 8.21446Z" fill="white"/>
<path d="M16.8908 6.54083L23.0155 11.6875L34.8891 -2.44258L16.4595 -1.44753L16.8908 6.54083ZM17.7265 8.21295L23.8486 13.3626L35.709 -0.737351L17.3091 0.223845L17.7265 8.21295ZM17.6708 0.214462C21.5265 0.214462 24.6521 3.34013 24.6521 7.19576H8.65214C8.65214 12.1767 12.6899 16.2145 17.6708 16.2145V0.214462ZM24.6521 7.19576C24.6521 8.90362 24.0291 10.4813 23.0155 11.6875L10.7661 1.39419C9.4548 2.95471 8.65214 4.98912 8.65214 7.19576H24.6521ZM16.4595 -1.44753C11.7045 -1.1908 7.92773 2.73725 7.92773 7.55789H23.9277C23.9277 11.2909 21.0038 14.3304 17.3221 14.5292L16.4595 -1.44753ZM7.92773 7.55789C7.92773 12.5388 11.9655 16.5766 16.9464 16.5766V0.576599C20.8021 0.576599 23.9277 3.70227 23.9277 7.55789H7.92773ZM16.9464 16.5766C19.7257 16.5766 22.2104 15.3103 23.8486 13.3626L11.6043 3.06325C12.8688 1.56004 14.7936 0.576599 16.9464 0.576599V16.5766ZM17.3091 0.223845C17.4113 0.218507 17.533 0.214462 17.6708 0.214462V16.2145C17.846 16.2145 18.0048 16.2093 18.1438 16.2021L17.3091 0.223845Z" fill="white" mask="url(#path-17-inside-6)"/>
<path d="M2.00226 7.55788C2.00226 8.12051 1.54619 8.57658 0.983551 8.57658C0.420914 8.57658 -0.0351562 8.12051 -0.0351562 7.55788C-0.0351562 6.99538 0.420914 6.53931 0.983551 6.53931C1.54619 6.53931 2.00226 6.99538 2.00226 7.55788Z" fill="white" stroke="white" stroke-width="8"/>
<mask id="path-20-inside-7" fill="white">
<path d="M1.70782 8.21446C1.14532 8.21446 0.689255 7.75839 0.689255 7.19576C0.689255 6.94637 0.778931 6.71799 0.927795 6.54083C0.391113 6.56981 -0.0351562 7.01407 -0.0351562 7.55789C-0.0351562 8.12053 0.420914 8.5766 0.983551 8.5766C1.29666 8.5766 1.57668 8.43515 1.76358 8.21295C1.74504 8.21391 1.7265 8.21446 1.70782 8.21446Z"/>
</mask>
<path d="M1.70782 8.21446C1.14532 8.21446 0.689255 7.75839 0.689255 7.19576C0.689255 6.94637 0.778931 6.71799 0.927795 6.54083C0.391113 6.56981 -0.0351562 7.01407 -0.0351562 7.55789C-0.0351562 8.12053 0.420914 8.5766 0.983551 8.5766C1.29666 8.5766 1.57668 8.43515 1.76358 8.21295C1.74504 8.21391 1.7265 8.21446 1.70782 8.21446Z" fill="white"/>
<path d="M0.927795 6.54083L7.0525 11.6875L18.9261 -2.44258L0.496489 -1.44753L0.927795 6.54083ZM1.76358 8.21295L7.88572 13.3627L19.7398 -0.729908L1.34932 0.223685L1.76358 8.21295ZM1.70782 0.214462C5.5643 0.214462 8.68925 3.34082 8.68925 7.19576H-7.31075C-7.31075 12.176 -3.27366 16.2145 1.70782 16.2145V0.214462ZM8.68925 7.19576C8.68925 8.90058 8.06812 10.4789 7.0525 11.6875L-5.19691 1.39418C-6.51025 2.95711 -7.31075 4.99216 -7.31075 7.19576H8.68925ZM0.496489 -1.44753C-4.25999 -1.19072 -8.03516 2.73868 -8.03516 7.55789H7.96484C7.96484 11.2895 5.04222 14.3303 1.3591 14.5292L0.496489 -1.44753ZM-8.03516 7.55789C-8.03516 12.5388 -3.99736 16.5766 0.983551 16.5766V0.576599C4.83919 0.576599 7.96484 3.70225 7.96484 7.55789H-8.03516ZM0.983551 16.5766C3.76212 16.5766 6.24707 15.3107 7.88572 13.3627L-4.35855 3.06325C-3.09372 1.55958 -1.16879 0.576599 0.983551 0.576599V16.5766ZM1.34932 0.223685C1.44872 0.218531 1.56964 0.214462 1.70782 0.214462V16.2145C1.88336 16.2145 2.04136 16.2093 2.17784 16.2022L1.34932 0.223685Z" fill="white" mask="url(#path-20-inside-7)"/>
</g>
<defs>
<clipPath id="clip0">
<rect width="18" height="18" fill="white"/>
</clipPath>
</defs>
</svg>
