<svg width="169" height="67" viewBox="0 0 169 67" fill="none" xmlns="http://www.w3.org/2000/svg">
<g filter="url(#filter0_d)">
<rect width="161" height="59" rx="10" fill="#FECA21"/>
</g>
<path d="M74.0432 42.2744C71.9494 43.7183 70.2407 43.1408 70.2407 40.5897V15.7052C70.2407 13.1542 71.9494 12.5766 74.0432 14.0206L90.7933 25.5243C92.8871 26.9682 92.8871 29.3267 90.7933 30.7466L74.0432 42.2744Z" fill="white"/>
<path d="M71.9975 43.2852C71.6846 43.2852 71.3718 43.213 71.107 43.0686C70.6017 42.8039 70 42.1541 70 40.5657V15.7052C70 14.1169 70.6017 13.4671 71.107 13.2023C71.9012 12.7932 72.9842 13.0098 74.1635 13.804L90.9136 25.3077C91.9966 26.0537 92.5982 27.0404 92.5982 28.1234C92.5982 29.2064 91.9966 30.1931 90.9136 30.9392L74.1635 42.4429C73.3933 43.0205 72.6473 43.2852 71.9975 43.2852ZM71.9975 13.4911C71.7568 13.4911 71.5402 13.5393 71.3477 13.6355C70.7942 13.9243 70.4813 14.6463 70.4813 15.7052V40.5898C70.4813 41.6487 70.7701 42.3707 71.3477 42.6595C71.9734 42.9964 72.912 42.7798 73.9228 42.0819L90.6729 30.5782C91.6115 29.9284 92.141 29.062 92.141 28.1716C92.141 27.257 91.6115 26.4147 90.6729 25.7649L73.9228 14.2613C73.2008 13.7318 72.551 13.4911 71.9975 13.4911Z" fill="white"/>
<defs>
<filter id="filter0_d" x="0" y="0" width="169" height="67" filterUnits="userSpaceOnUse" color-interpolation-filters="sRGB">
<feFlood flood-opacity="0" result="BackgroundImageFix"/>
<feColorMatrix in="SourceAlpha" type="matrix" values="0 0 0 0 0 0 0 0 0 0 0 0 0 0 0 0 0 0 127 0"/>
<feOffset dx="4" dy="4"/>
<feGaussianBlur stdDeviation="2"/>
<feColorMatrix type="matrix" values="0 0 0 0 0 0 0 0 0 0 0 0 0 0 0 0 0 0 0.25 0"/>
<feBlend mode="normal" in2="BackgroundImageFix" result="effect1_dropShadow"/>
<feBlend mode="normal" in="SourceGraphic" in2="effect1_dropShadow" result="shape"/>
</filter>
</defs>
</svg>
