<svg width="46" height="22" viewBox="0 0 46 22" fill="none" xmlns="http://www.w3.org/2000/svg">
<path d="M10.6608 20.9355C5.17407 20.9355 0.726562 16.4879 0.726562 11.0012C0.726562 5.51441 5.17407 1.06689 10.6608 1.06689C16.1476 1.06689 20.5951 5.51441 20.5951 11.0012C20.5907 16.4857 16.1454 20.931 10.6608 20.9355ZM10.6608 4.54833C7.09293 4.54833 4.2006 7.44065 4.2006 11.0086C4.2006 14.5765 7.09293 17.4688 10.6608 17.4688C14.2288 17.4688 17.1211 14.5765 17.1211 11.0086C17.1211 11.0064 17.1211 11.0034 17.1211 11.0012C17.1166 7.43474 14.2273 4.54537 10.6608 4.54094V4.54833Z" fill="white"/>
<path d="M20.5803 10.262L20.4916 9.62637C20.1879 7.41037 19.1464 5.36143 17.535 3.80919L16.2045 2.53784H29.7829L28.4524 3.80919C26.841 5.36143 25.7995 7.41037 25.4957 9.62637L25.407 10.262H20.5803Z" fill="white"/>
<path d="M10.6608 17.4615C7.09289 17.4615 4.20056 14.5692 4.20056 11.0013C4.20056 7.43334 7.09289 4.54102 10.6608 4.54102C14.2287 4.54102 17.121 7.43334 17.121 11.0013C17.1166 14.5677 14.2272 17.4571 10.6608 17.4615Z" fill="white"/>
<path d="M35.3191 17.4615C31.7512 17.4659 28.8559 14.5766 28.8515 11.0086C28.8471 7.44074 31.7364 4.54546 35.3044 4.54102C38.8723 4.53659 41.7675 7.42595 41.772 10.9939C41.772 10.9961 41.772 10.999 41.772 11.0013C41.7683 14.5647 38.8826 17.4534 35.3191 17.4615Z" fill="white"/>
<path d="M35.3191 20.9355C29.8323 20.9355 25.3848 16.4879 25.3848 11.0012C25.3848 5.51441 29.8323 1.06689 35.3191 1.06689C40.8059 1.06689 45.2534 5.51441 45.2534 11.0012C45.249 16.4857 40.8037 20.931 35.3191 20.9355ZM35.3191 4.54833C31.7512 4.54389 28.8559 7.43326 28.8515 11.0012C28.847 14.5691 31.7364 17.4644 35.3043 17.4688C38.8722 17.4732 41.7675 14.5839 41.772 11.016C41.772 11.0108 41.772 11.0064 41.772 11.0012C41.7683 7.4377 38.8826 4.54907 35.3191 4.54094V4.54833Z" fill="white"/>
<path d="M35.3191 0.32778C33.4106 0.322606 31.5361 0.833364 29.8937 1.8061H16.0862C11.0119 -1.18602 4.47334 0.501482 1.4805 5.5758C-1.51235 10.6501 0.175883 17.1887 5.2502 20.1808C10.3245 23.1729 16.8631 21.4854 19.856 16.4111C20.8228 14.7717 21.3335 12.9038 21.3343 11.0005H24.6531C24.6531 16.8953 29.4317 21.6739 35.3265 21.6739C41.2213 21.6739 46 16.896 46 11.0012C46 5.10643 41.2213 0.32778 35.3265 0.32778C35.3243 0.32778 35.3213 0.32778 35.3191 0.32778ZM10.6608 20.1963C5.58282 20.1963 1.46571 16.0792 1.46571 11.0012C1.46571 5.9232 5.58282 1.8061 10.6608 1.8061C15.7388 1.8061 19.856 5.9232 19.856 11.0012C19.8515 16.0778 15.7374 20.1919 10.6608 20.1963ZM21.2234 9.5229C20.8989 7.13838 19.7761 4.93421 18.0376 3.26963H27.9423C26.2038 4.93421 25.0811 7.13838 24.7566 9.5229H21.2234ZM35.3191 20.1963C30.2411 20.1963 26.124 16.0792 26.124 11.0012C26.124 5.9232 30.2411 1.8061 35.3191 1.8061C40.3971 1.8061 44.5142 5.9232 44.5142 11.0012C44.5098 16.0778 40.3957 20.1919 35.3191 20.1963Z" fill="#3874BC"/>
<path d="M10.6608 3.80176C6.68489 3.80176 3.46143 7.02522 3.46143 11.0012C3.46143 14.9771 6.68489 18.2005 10.6608 18.2005C14.6367 18.2005 17.8602 14.9771 17.8602 11.0012C17.8558 7.0267 14.6353 3.80619 10.6608 3.80176ZM10.6608 16.7148C7.50092 16.7148 4.93974 14.1537 4.93974 10.9938C4.93974 7.83386 7.50092 5.27268 10.6608 5.27268C13.8207 5.27268 16.3819 7.83386 16.3819 10.9938C16.3819 10.996 16.3819 10.9989 16.3819 11.0012C16.3819 14.1611 13.8207 16.7222 10.6608 16.7222V16.7148Z" fill="#3874BC"/>
<path d="M35.3192 3.80176C31.3432 3.79733 28.1168 7.01784 28.1124 10.9938C28.1079 14.9697 31.3284 18.1961 35.3044 18.2006C39.2803 18.205 42.5067 14.9845 42.5111 11.0085C42.5111 11.0063 42.5111 11.0034 42.5111 11.0012C42.5067 7.02966 39.2906 3.80989 35.3192 3.80176ZM35.3192 16.7148C32.1593 16.7193 29.5951 14.1611 29.5907 11.0012C29.5862 7.84126 32.1445 5.27712 35.3044 5.27269C38.4643 5.26825 41.0284 7.82647 41.0328 10.9864C41.0328 10.9915 41.0328 10.996 41.0328 11.0012C41.0328 14.1581 38.4761 16.7178 35.3192 16.7222V16.7148Z" fill="#3874BC"/>
</svg>
