<svg width="50" height="44" viewBox="0 0 50 44" fill="none" xmlns="http://www.w3.org/2000/svg">
<path d="M48.8462 15.5172L35.4803 13.4755L29.4893 0.714672C29.0419 -0.238224 27.4785 -0.238224 27.031 0.714672L21.0419 13.4755L7.67598 15.5172C6.57816 15.6857 6.13975 17.0208 6.90968 17.8088L16.6198 27.7617L14.3245 41.8323C14.1415 42.9501 15.3354 43.7888 16.3227 43.2399L28.2611 36.6421L40.1995 43.2418C41.1777 43.7852 42.3824 42.9628 42.1976 41.8341L39.9024 27.7635L49.6125 17.8106C50.3824 17.0208 49.9422 15.6857 48.8462 15.5172Z" fill="white"/>
<path d="M42.3244 15.5172L28.9585 13.4755L22.9676 0.714672C22.5201 -0.238224 20.9567 -0.238224 20.5093 0.714672L14.5202 13.4755L1.15425 15.5172C0.0564296 15.6857 -0.381975 17.0208 0.38795 17.8088L10.0981 27.7617L7.80279 41.8323C7.61982 42.9501 8.81365 43.7888 9.80097 43.2399L21.7393 36.6421L33.6777 43.2418C34.656 43.7852 35.8607 42.9628 35.6759 41.8341L33.3806 27.7635L43.0907 17.8106M42.3244 15.5172L42.1725 16.5056L28.8075 14.464L28.2801 14.3835L28.0533 13.9005L22.0624 1.13972M42.3244 15.5172C43.4205 15.6857 43.8607 17.0208 43.0907 17.8106M42.3244 15.5172L42.1734 16.5057L42.1727 16.5056C42.4594 16.5498 42.5805 16.9013 42.3747 17.1126L42.375 17.1123L43.0907 17.8106M22.0624 1.13972L22.9673 0.714809L22.0624 1.13965L22.0624 1.13972ZM22.0624 1.13972C22.0436 1.09958 21.9577 1 21.7384 1C21.5192 1 21.4333 1.09958 21.4144 1.13972M21.4144 1.13972L21.4145 1.13954L20.5094 0.714729L21.4144 1.13972ZM21.4144 1.13972L15.4254 13.9004L15.1987 14.3835L14.6712 14.464L1.30594 16.5056M1.30594 16.5056L1.15427 15.5173L1.30525 16.5057L1.30594 16.5056ZM1.30594 16.5056C1.01746 16.5499 0.898706 16.9007 1.10323 17.11L1.10373 17.1105L10.8139 27.0634L11.1663 27.4246L11.085 27.9227L8.78974 41.9933L8.78965 41.9939C8.74155 42.2877 9.05964 42.5079 9.31506 42.3659L9.31727 42.3647L21.2556 35.7669L21.7394 35.4995L22.2232 35.767L34.1615 42.3666L34.1634 42.3676C34.4236 42.5122 34.7364 42.2849 34.689 41.9957L34.689 41.9951L32.3937 27.9245L32.3124 27.4264L32.6648 27.0652L42.3747 17.1126L43.0907 17.8106" stroke="white" stroke-width="2"/>
</svg>
