<svg width="80" height="80" viewBox="0 0 80 80" fill="none" xmlns="http://www.w3.org/2000/svg">
<g clip-path="url(#clip0)">
<path d="M24.3465 26.4646C26.3533 28.7214 29.0931 31.3629 32.3049 33.2751L25.4693 39.2623H17.013C18.4481 35.708 18.9811 31.8067 19.1519 28.6702C19.2566 26.7475 19.2271 25.0702 19.1713 23.8713C19.1584 23.5926 19.144 23.3394 19.1295 23.1146L21.1179 22.4106C21.2298 22.5686 21.355 22.7429 21.4928 22.9315C22.1605 23.8446 23.1307 25.0974 24.3465 26.4646Z" stroke="white" stroke-width="3"/>
<path d="M47.3826 33.2751C50.5944 31.3629 53.3342 28.7214 55.3411 26.4646C56.5568 25.0974 57.527 23.8446 58.1947 22.9315C58.3325 22.7429 58.4577 22.5686 58.5696 22.4106L60.558 23.1146C60.5435 23.3394 60.5291 23.5926 60.5162 23.8713C60.4604 25.0702 60.4309 26.7475 60.5356 28.6702C60.7064 31.8067 61.2394 35.708 62.6745 39.2623H54.2182L47.3826 33.2751Z" stroke="white" stroke-width="3"/>
<path d="M9.29774 39.393C8.85545 38.547 8.43432 37.7757 8.04766 37.0888C12.959 40.3498 17.6116 41.6627 21.9851 41.1679C27.3513 40.5609 31.3144 37.3417 34.0671 33.9201C36.8212 30.4969 38.6707 26.5076 39.818 23.501C39.8266 23.4784 39.8352 23.4558 39.8438 23.4333C39.8523 23.4558 39.8609 23.4784 39.8695 23.501C41.0168 26.5076 42.8663 30.4969 45.6204 33.9201C48.3731 37.3417 52.3362 40.5609 57.7024 41.1679C62.0759 41.6627 66.7285 40.3498 71.6398 37.0888C71.2532 37.7757 70.8321 38.547 70.3898 39.393C68.7451 42.5385 66.7783 46.7708 65.2114 51.5622L39.8438 57.1493L14.4761 51.5622C12.9092 46.7707 10.9424 42.5385 9.29774 39.393Z" fill="white" stroke="white" stroke-width="8"/>
<path d="M16.9966 62.7626C16.8518 61.4813 16.6544 60.2136 16.4146 58.967H63.2729C63.0331 60.2136 62.8357 61.4813 62.6909 62.7626L62.6908 62.7642C62.6417 63.2004 62.2752 63.5244 61.8439 63.5244H17.8436C17.4123 63.5244 17.0458 63.2004 16.9967 62.7642L16.9966 62.7626Z" fill="white" stroke="white" stroke-width="8"/>
<path d="M20.1504 21.3483C20.1504 21.6397 19.9143 21.8759 19.6228 21.8759C19.3323 21.8759 19.0958 21.6401 19.0958 21.3483C19.0958 21.0574 19.3319 20.8213 19.6228 20.8213C19.9146 20.8213 20.1504 21.0578 20.1504 21.3483Z" fill="white" stroke="white" stroke-width="8"/>
<mask id="path-6-inside-1" fill="white">
<path d="M18.5748 21.25C18.02 19.6832 18.3801 18.0157 19.375 16.828C18.9545 16.8512 18.5296 16.933 18.1122 17.0807C15.755 17.915 14.5209 20.5023 15.3552 22.8595C16.1896 25.2167 18.7768 26.4508 21.134 25.6165C21.9244 25.3369 22.5879 24.859 23.0902 24.2596C21.1346 24.3677 19.2615 23.1897 18.5748 21.25Z"/>
</mask>
<path d="M18.5748 21.25C18.02 19.6832 18.3801 18.0157 19.375 16.828C18.9545 16.8512 18.5296 16.933 18.1122 17.0807C15.755 17.915 14.5209 20.5023 15.3552 22.8595C16.1896 25.2167 18.7768 26.4508 21.134 25.6165C21.9244 25.3369 22.5879 24.859 23.0902 24.2596C21.1346 24.3677 19.2615 23.1897 18.5748 21.25Z" fill="white"/>
<path d="M18.5748 21.25L26.1162 18.5804L26.116 18.5796L18.5748 21.25ZM19.375 16.828L25.5078 21.965L37.3522 7.82436L18.9344 8.84014L19.375 16.828ZM18.1122 17.0807L15.4438 9.5388L15.4428 9.53919L18.1122 17.0807ZM15.3552 22.8595L22.8967 20.1901L22.8967 20.1901L15.3552 22.8595ZM21.134 25.6165L18.4666 18.0743L18.4646 18.075L21.134 25.6165ZM23.0902 24.2596L29.2216 29.3983L41.0759 15.2539L22.6489 16.2718L23.0902 24.2596ZM26.116 18.5796C26.5459 19.7938 26.2525 21.0759 25.5078 21.965L13.2421 11.691C10.5077 14.9556 9.49407 19.5726 11.0337 23.9204L26.116 18.5796ZM18.9344 8.84014C17.7747 8.90411 16.5983 9.13036 15.4438 9.5388L20.7805 24.6226C20.461 24.7356 20.1342 24.7983 19.8155 24.8159L18.9344 8.84014ZM15.4428 9.53919C8.91947 11.8482 5.50546 19.0077 7.8137 25.5289L22.8967 20.1901C23.5363 21.9969 22.5905 23.9819 20.7816 24.6222L15.4428 9.53919ZM7.8137 25.5289C10.1227 32.0522 17.2822 35.4662 23.8034 33.158L18.4646 18.075C20.2714 17.4354 22.2564 18.3812 22.8967 20.1901L7.8137 25.5289ZM23.8015 33.1587C25.9859 32.3861 27.8317 31.0568 29.2216 29.3983L16.9588 19.121C17.3441 18.6612 17.8629 18.2878 18.4666 18.0743L23.8015 33.1587ZM22.6489 16.2718C24.14 16.1895 25.5846 17.0785 26.1162 18.5804L11.0334 23.9196C12.9383 29.3009 18.1293 32.5459 23.5315 32.2475L22.6489 16.2718Z" fill="white" mask="url(#path-6-inside-1)"/>
<path d="M60.5917 21.3483C60.5917 21.6401 60.3552 21.8759 60.0647 21.8759C59.7732 21.8759 59.5371 21.6397 59.5371 21.3483C59.5371 21.0578 59.7729 20.8213 60.0647 20.8213C60.3556 20.8213 60.5917 21.0574 60.5917 21.3483Z" fill="white" stroke="white" stroke-width="8"/>
<mask id="path-9-inside-2" fill="white">
<path d="M61.7725 24.007C59.4159 23.1726 58.1812 20.5847 59.0155 18.2281C59.2023 17.7014 59.4763 17.2314 59.8157 16.8274C58.0469 16.925 56.4246 18.0627 55.7965 19.8376C54.9622 22.1948 56.1963 24.7821 58.5535 25.6165C60.3839 26.2647 62.3529 25.6647 63.5321 24.2603C62.9517 24.2926 62.3554 24.2126 61.7725 24.007Z"/>
</mask>
<path d="M61.7725 24.007L59.1025 31.5483L59.1103 31.551L61.7725 24.007ZM59.0155 18.2281L51.4755 15.5546L51.4742 15.5581L59.0155 18.2281ZM59.8157 16.8274L65.9417 21.9725L77.8275 7.82077L59.3747 8.83956L59.8157 16.8274ZM55.7965 19.8376L63.338 22.5071L63.3383 22.5063L55.7965 19.8376ZM58.5535 25.6165L61.2239 18.0753L61.2229 18.075L58.5535 25.6165ZM63.5321 24.2603L69.6589 29.4045L81.5487 15.2438L63.087 16.2727L63.5321 24.2603ZM64.4425 16.4657C66.2503 17.1057 67.1973 19.0892 66.5568 20.8982L51.4742 15.5581C49.1651 22.0802 52.5815 29.2395 59.1025 31.5482L64.4425 16.4657ZM66.5556 20.9017C66.4169 21.2929 66.2066 21.6571 65.9417 21.9725L53.6897 11.6823C52.7461 12.8058 51.9877 14.11 51.4755 15.5546L66.5556 20.9017ZM59.3747 8.83956C54.4975 9.10883 49.9976 12.2436 48.2548 17.169L63.3383 22.5063C62.8515 23.8819 61.5963 24.7413 60.2567 24.8152L59.3747 8.83956ZM48.255 17.1682C45.9468 23.6894 49.3608 30.849 55.8841 33.158L61.2229 18.075C63.0318 18.7152 63.9776 20.7002 63.338 22.5071L48.255 17.1682ZM55.883 33.1576C60.9615 34.956 66.405 33.2798 69.6589 29.4045L57.4054 19.116C58.3008 18.0496 59.8063 17.5733 61.2239 18.0753L55.883 33.1576ZM63.087 16.2727C63.5477 16.247 64.0083 16.3124 64.4346 16.4629L59.1103 31.551C60.7025 32.1129 62.3557 32.3382 63.9773 32.2479L63.087 16.2727Z" fill="white" mask="url(#path-9-inside-2)"/>
<path d="M40.3713 17.1838C40.3713 17.4753 40.1352 17.7114 39.8438 17.7114C39.5523 17.7114 39.3162 17.4753 39.3162 17.1838C39.3162 16.8924 39.5523 16.6562 39.8438 16.6562C40.1352 16.6562 40.3713 16.8924 40.3713 17.1838Z" fill="white" stroke="white" stroke-width="8"/>
<mask id="path-12-inside-3" fill="white">
<path d="M43.0633 20.1013C40.5627 20.1013 38.5358 18.0743 38.5358 15.5737C38.5358 14.4653 38.9343 13.4503 39.5959 12.663C37.2107 12.7917 35.3162 14.7662 35.3162 17.1838C35.3162 19.6838 37.3431 21.7108 39.8437 21.7108C41.2353 21.7108 42.4798 21.0828 43.3105 20.0946C43.2287 20.0989 43.1463 20.1013 43.0633 20.1013Z"/>
</mask>
<path d="M43.0633 20.1013C40.5627 20.1013 38.5358 18.0743 38.5358 15.5737C38.5358 14.4653 38.9343 13.4503 39.5959 12.663C37.2107 12.7917 35.3162 14.7662 35.3162 17.1838C35.3162 19.6838 37.3431 21.7108 39.8437 21.7108C41.2353 21.7108 42.4798 21.0828 43.3105 20.0946C43.2287 20.0989 43.1463 20.1013 43.0633 20.1013Z" fill="white"/>
<path d="M39.5959 12.663L45.7206 17.8096L57.5943 3.67955L39.1646 4.6746L39.5959 12.663ZM43.3105 20.0946L49.4342 25.2424L61.2853 11.1447L42.8932 12.1055L43.3105 20.0946ZM43.0633 12.1013C44.981 12.1013 46.5358 13.6561 46.5358 15.5737H30.5358C30.5358 22.4926 36.1444 28.1013 43.0633 28.1013V12.1013ZM46.5358 15.5737C46.5358 16.4195 46.2235 17.2112 45.7206 17.8096L33.4712 7.51632C31.6451 9.68945 30.5358 12.5111 30.5358 15.5737H46.5358ZM39.1646 4.6746C32.5589 5.03126 27.3162 10.4916 27.3162 17.1838H43.3162C43.3162 19.0409 41.8625 20.5522 40.0272 20.6513L39.1646 4.6746ZM27.3162 17.1838C27.3162 24.1028 32.9255 29.7108 39.8437 29.7108V13.7108C41.7607 13.7108 43.3162 15.2649 43.3162 17.1838H27.3162ZM39.8437 29.7108C43.6987 29.7108 47.1498 27.9599 49.4342 25.2424L37.1868 14.9468C37.8099 14.2056 38.772 13.7108 39.8437 13.7108V29.7108ZM42.8932 12.1055C42.932 12.1035 42.9899 12.1013 43.0633 12.1013V28.1013C43.3028 28.1013 43.5255 28.0943 43.7279 28.0837L42.8932 12.1055Z" fill="white" mask="url(#path-12-inside-3)"/>
<path d="M75.8438 33.5907C75.8438 33.8822 75.6076 34.1183 75.3162 34.1183C75.0247 34.1183 74.7886 33.8822 74.7886 33.5907C74.7886 33.3002 75.0243 33.0637 75.3162 33.0637C75.608 33.0637 75.8438 33.3002 75.8438 33.5907Z" fill="white" stroke="white" stroke-width="8"/>
<mask id="path-15-inside-4" fill="white">
<path d="M78.5358 36.5088C76.0351 36.5088 74.0082 34.4818 74.0082 31.9812C74.0082 30.8728 74.4073 29.8578 75.069 29.0704C72.6837 29.1992 70.7886 31.1737 70.7886 33.5907C70.7886 36.0913 72.8155 38.1183 75.3162 38.1183C76.7084 38.1183 77.9523 37.4896 78.7829 36.5021C78.7012 36.5063 78.6188 36.5088 78.5358 36.5088Z"/>
</mask>
<path d="M78.5358 36.5088C76.0351 36.5088 74.0082 34.4818 74.0082 31.9812C74.0082 30.8728 74.4073 29.8578 75.069 29.0704C72.6837 29.1992 70.7886 31.1737 70.7886 33.5907C70.7886 36.0913 72.8155 38.1183 75.3162 38.1183C76.7084 38.1183 77.9523 37.4896 78.7829 36.5021C78.7012 36.5063 78.6188 36.5088 78.5358 36.5088Z" fill="white"/>
<path d="M75.069 29.0704L81.1937 34.2171L93.0673 20.087L74.6377 21.0821L75.069 29.0704ZM78.7829 36.5021L84.9051 41.6518L96.7654 27.5518L78.3656 28.513L78.7829 36.5021ZM78.5358 28.5088C80.4534 28.5088 82.0082 30.0635 82.0082 31.9812H66.0082C66.0082 38.9001 71.6169 44.5088 78.5358 44.5088V28.5088ZM82.0082 31.9812C82.0082 32.8301 81.6945 33.6211 81.1937 34.2171L68.9443 23.9238C67.1202 26.0945 66.0082 28.9156 66.0082 31.9812H82.0082ZM74.6377 21.0821C68.034 21.4386 62.7886 26.8969 62.7886 33.5907H78.7886C78.7886 35.4505 77.3334 36.9598 75.5003 37.0588L74.6377 21.0821ZM62.7886 33.5907C62.7886 40.5096 68.3973 46.1183 75.3162 46.1183V30.1183C77.2338 30.1183 78.7886 31.673 78.7886 33.5907H62.7886ZM75.3162 46.1183C79.1744 46.1183 82.6231 44.3647 84.9051 41.6518L72.6608 31.3524C73.2815 30.6145 74.2423 30.1183 75.3162 30.1183V46.1183ZM78.3656 28.513C78.4044 28.5109 78.4623 28.5088 78.5358 28.5088V44.5088C78.7752 44.5088 78.9979 44.5018 79.2003 44.4912L78.3656 28.513Z" fill="white" mask="url(#path-15-inside-4)"/>
<path d="M4.89893 33.5907C4.89893 33.8822 4.66281 34.1183 4.37134 34.1183C4.07987 34.1183 3.84375 33.8822 3.84375 33.5907C3.84375 33.3002 4.07952 33.0637 4.37134 33.0637C4.66316 33.0637 4.89893 33.3002 4.89893 33.5907Z" fill="white" stroke="white" stroke-width="8"/>
<mask id="path-18-inside-5" fill="white">
<path d="M7.59033 36.5088C5.09033 36.5088 3.06335 34.4818 3.06335 31.9812C3.06335 30.8728 3.46191 29.8578 4.12354 29.0704C1.73828 29.1992 -0.15625 31.1737 -0.15625 33.5907C-0.15625 36.0913 1.87073 38.1183 4.37134 38.1183C5.76294 38.1183 7.00745 37.4896 7.83813 36.5021C7.75574 36.5063 7.67334 36.5088 7.59033 36.5088Z"/>
</mask>
<path d="M7.59033 36.5088C5.09033 36.5088 3.06335 34.4818 3.06335 31.9812C3.06335 30.8728 3.46191 29.8578 4.12354 29.0704C1.73828 29.1992 -0.15625 31.1737 -0.15625 33.5907C-0.15625 36.0913 1.87073 38.1183 4.37134 38.1183C5.76294 38.1183 7.00745 37.4896 7.83813 36.5021C7.75574 36.5063 7.67334 36.5088 7.59033 36.5088Z" fill="white"/>
<path d="M4.12354 29.0704L10.2482 34.2171L22.1219 20.087L3.69223 21.0821L4.12354 29.0704ZM7.83813 36.5021L13.9603 41.6518L25.8144 27.5592L7.42387 28.5128L7.83813 36.5021ZM7.59033 28.5088C9.50931 28.5088 11.0634 30.0642 11.0634 31.9812H-4.93665C-4.93665 38.8994 0.671352 44.5088 7.59033 44.5088V28.5088ZM11.0634 31.9812C11.0634 32.827 10.7511 33.6187 10.2482 34.2171L-2.00117 23.9238C-3.82727 26.0969 -4.93665 28.9186 -4.93665 31.9812H11.0634ZM3.69223 21.0821C-2.91282 21.4387 -8.15625 26.8983 -8.15625 33.5907H7.84375C7.84375 35.4491 6.38938 36.9597 4.55484 37.0588L3.69223 21.0821ZM-8.15625 33.5907C-8.15625 40.5096 -2.54755 46.1183 4.37134 46.1183V30.1183C6.28901 30.1183 7.84375 31.673 7.84375 33.5907H-8.15625ZM4.37134 46.1183C8.22839 46.1183 11.6778 44.3652 13.9603 41.6518L1.716 31.3524C2.33705 30.614 3.29749 30.1183 4.37134 30.1183V46.1183ZM7.42387 28.5128C7.45941 28.511 7.51648 28.5088 7.59033 28.5088V44.5088C7.8302 44.5088 8.05206 44.5017 8.2524 44.4913L7.42387 28.5128Z" fill="white" mask="url(#path-18-inside-5)"/>
</g>
<defs>
<clipPath id="clip0">
<rect width="80" height="80" fill="white"/>
</clipPath>
</defs>
</svg>
