<svg width="40" height="40" viewBox="0 0 40 40" fill="none" xmlns="http://www.w3.org/2000/svg">
<g clip-path="url(#clip0)">
<path d="M11.6128 13.7307C12.4611 14.6847 13.5854 15.7972 14.9122 16.7269L12.4526 18.8812H9.56765C10.057 17.301 10.2533 15.6893 10.3248 14.3759C10.371 13.5278 10.3666 12.7728 10.3463 12.1849C10.6736 12.6189 11.1009 13.155 11.6128 13.7307Z" stroke="white" stroke-width="3"/>
<path d="M24.9318 16.7269C26.2586 15.7972 27.3829 14.6847 28.2312 13.7307C28.7431 13.155 29.1704 12.6189 29.4977 12.1849C29.4774 12.7728 29.473 13.5278 29.5192 14.3759C29.5907 15.6893 29.787 17.301 30.2763 18.8812H27.3914L24.9318 16.7269Z" stroke="white" stroke-width="3"/>
<path d="M8.76366 24.0692C8.56153 23.5099 8.35151 22.9691 8.13823 22.4501C9.16364 22.6434 10.1909 22.6874 11.2174 22.5713C14.6181 22.1866 17.0316 20.1531 18.5919 18.2137C19.0892 17.5956 19.531 16.9501 19.9219 16.3057C20.3128 16.9501 20.7546 17.5956 21.252 18.2137C22.8122 20.1531 25.2258 22.1866 28.6264 22.5713C29.653 22.6874 30.6802 22.6434 31.7056 22.4501C31.4924 22.9691 31.2823 23.5099 31.0802 24.0692L19.9219 26.5267L8.76366 24.0692Z" fill="white" stroke="white" stroke-width="8"/>
<mask id="path-4-inside-1" fill="white">
<path d="M34.1747 27.4835C33.7929 28.8062 33.4923 30.1959 33.333 31.6058C33.1948 32.8339 32.1575 33.7622 30.9221 33.7622H8.922C7.68665 33.7622 6.64935 32.8339 6.51111 31.6058C6.35181 30.1959 6.05121 28.8062 5.66943 27.4835H34.1747Z"/>
</mask>
<path d="M34.1747 27.4835C33.7929 28.8062 33.4923 30.1959 33.333 31.6058C33.1948 32.8339 32.1575 33.7622 30.9221 33.7622H8.922C7.68665 33.7622 6.64935 32.8339 6.51111 31.6058C6.35181 30.1959 6.05121 28.8062 5.66943 27.4835H34.1747Z" fill="white"/>
<path d="M34.1747 27.4835L41.8609 29.7021L44.8105 19.4835H34.1747V27.4835ZM33.333 31.6058L25.3836 30.7077L25.3832 30.7109L33.333 31.6058ZM6.51111 31.6058L14.4609 30.7109L14.4605 30.7077L6.51111 31.6058ZM5.66943 27.4835V19.4835H-4.96635L-2.01677 29.7021L5.66943 27.4835ZM26.4885 25.2649C26.0055 26.9381 25.6021 28.774 25.3836 30.7077L41.2824 32.504C41.3826 31.6179 41.5803 30.6742 41.8609 29.7021L26.4885 25.2649ZM25.3832 30.7109C25.6997 27.8992 28.0787 25.7622 30.9221 25.7622V41.7622C36.2362 41.7622 40.6898 37.7685 41.2828 32.5008L25.3832 30.7109ZM30.9221 25.7622H8.922V41.7622H30.9221V25.7622ZM8.922 25.7622C11.7654 25.7622 14.1444 27.8992 14.4609 30.7109L-1.43868 32.5008C-0.845665 37.7685 3.60791 41.7622 8.922 41.7622V25.7622ZM14.4605 30.7077C14.242 28.774 13.8386 26.9381 13.3556 25.2649L-2.01677 29.7021C-1.73618 30.6742 -1.53844 31.6179 -1.43831 32.504L14.4605 30.7077ZM5.66943 35.4835H34.1747V19.4835H5.66943V35.4835Z" fill="white" mask="url(#path-4-inside-1)"/>
<path d="M8.07514 10.6741C8.07514 9.71529 8.85251 8.93793 9.81134 8.93793C10.7708 8.93793 11.5479 9.71565 11.5479 10.6741C11.5479 11.6333 10.7705 12.4106 9.81134 12.4106C8.85286 12.4106 8.07514 11.6336 8.07514 10.6741Z" fill="white" stroke="white" stroke-width="8"/>
<mask id="path-7-inside-2" fill="white">
<path d="M9.28754 10.625C9.01014 9.84161 9.19019 9.00787 9.68763 8.414C9.47736 8.4256 9.26496 8.46649 9.05622 8.54034C7.87763 8.95752 7.26057 10.2512 7.67774 11.4297C8.09492 12.6083 9.38856 13.2254 10.5671 12.8082C10.9623 12.6685 11.2941 12.4295 11.5452 12.1298C10.5675 12.1838 9.63087 11.5948 9.28754 10.625Z"/>
</mask>
<path d="M9.28754 10.625C9.01014 9.84161 9.19019 9.00787 9.68763 8.414C9.47736 8.4256 9.26496 8.46649 9.05622 8.54034C7.87763 8.95752 7.26057 10.2512 7.67774 11.4297C8.09492 12.6083 9.38856 13.2254 10.5671 12.8082C10.9623 12.6685 11.2941 12.4295 11.5452 12.1298C10.5675 12.1838 9.63087 11.5948 9.28754 10.625Z" fill="white"/>
<path d="M9.28754 10.625L16.829 7.95537L16.8287 7.95461L9.28754 10.625ZM9.68763 8.414L15.8205 13.551L27.6648 -0.589641L9.24708 0.426141L9.68763 8.414ZM9.05622 8.54034L6.38789 0.99846L6.38681 0.998841L9.05622 8.54034ZM7.67774 11.4297L15.2192 8.76035L15.2192 8.76035L7.67774 11.4297ZM10.5671 12.8082L7.89971 5.26603L7.89774 5.26673L10.5671 12.8082ZM11.5452 12.1298L17.6767 17.2685L29.5309 3.12403L11.104 4.142L11.5452 12.1298ZM16.8287 7.95461C17.5361 9.95223 17.0626 12.068 15.8205 13.551L3.55479 3.27705C1.31781 5.9477 0.484202 9.73099 1.74639 13.2954L16.8287 7.95461ZM9.24708 0.426141C8.29759 0.478508 7.33361 0.663865 6.38789 0.99846L11.7245 16.0822C11.1963 16.2691 10.6571 16.3727 10.1282 16.4019L9.24708 0.426141ZM6.38681 0.998841C1.04211 2.89066 -1.75483 8.75657 0.136237 14.0992L15.2192 8.76035C16.276 11.7458 14.7132 15.0244 11.7256 16.0818L6.38681 0.998841ZM0.136237 14.0992C2.02805 19.4439 7.89396 22.2408 13.2366 20.3497L7.89774 5.26673C10.8832 4.21 14.1618 5.77283 15.2192 8.76035L0.136237 14.0992ZM13.2346 20.3504C15.0239 19.7176 16.5379 18.6273 17.6767 17.2685L5.41382 6.99117C6.05029 6.23174 6.90084 5.6193 7.89971 5.26603L13.2346 20.3504ZM11.104 4.142C13.5728 4.00562 15.954 5.48365 16.829 7.95537L1.74612 13.2946C3.30775 17.7061 7.5621 20.3621 11.9865 20.1176L11.104 4.142Z" fill="white" mask="url(#path-7-inside-2)"/>
<path d="M28.2958 10.6741C28.2958 9.71565 29.0729 8.93793 30.0324 8.93793C30.9912 8.93793 31.7686 9.71529 31.7686 10.6741C31.7686 11.6336 30.9908 12.4106 30.0324 12.4106C29.0732 12.4106 28.2958 11.6333 28.2958 10.6741Z" fill="white" stroke="white" stroke-width="8"/>
<mask id="path-10-inside-3" fill="white">
<path d="M30.8864 12.0035C29.7081 11.5863 29.0908 10.2924 29.5079 9.11407C29.6013 8.85071 29.7384 8.61572 29.908 8.4137C29.0236 8.46252 28.2125 9.03137 27.8984 9.91882C27.4813 11.0974 28.0983 12.3911 29.2769 12.8082C30.1922 13.1323 31.1767 12.8323 31.7663 12.1301C31.476 12.1463 31.1779 12.1063 30.8864 12.0035Z"/>
</mask>
<path d="M30.8864 12.0035L28.2164 19.5448L28.2243 19.5475L30.8864 12.0035ZM29.5079 9.11407L21.9679 6.44055L21.9667 6.44405L29.5079 9.11407ZM29.908 8.4137L36.034 13.5588L47.9198 -0.592923L29.467 0.425861L29.908 8.4137ZM27.8984 9.91882L35.4399 12.5882L35.4402 12.5875L27.8984 9.91882ZM29.2769 12.8082L31.9474 5.26709L31.9463 5.26672L29.2769 12.8082ZM31.7663 12.1301L37.893 17.2744L49.7828 3.11364L31.3211 4.14252L31.7663 12.1301ZM33.5564 4.46219C36.5425 5.51943 38.1069 8.79689 37.0492 11.7841L21.9667 6.44405C20.0747 11.7878 22.8737 17.6532 28.2164 19.5448L33.5564 4.46219ZM37.048 11.7876C36.8159 12.4421 36.4686 13.0414 36.034 13.5588L23.782 3.26859C23.0081 4.19008 22.3868 5.25927 21.9679 6.44055L37.048 11.7876ZM29.467 0.425861C25.4743 0.646303 21.7855 3.21224 20.3567 7.25015L35.4402 12.5875C34.6394 14.8505 32.573 16.2787 30.349 16.4015L29.467 0.425861ZM20.3569 7.24942C18.4659 12.592 21.2628 18.4579 26.6075 20.3497L31.9463 5.26672C34.9338 6.32419 36.4967 9.60281 35.4399 12.5882L20.3569 7.24942ZM26.6065 20.3494C30.7698 21.8237 35.2287 20.4474 37.893 17.2744L25.6395 6.9859C27.1246 5.21723 29.6145 4.441 31.9474 5.26709L26.6065 20.3494ZM31.3211 4.14252C32.072 4.10067 32.8308 4.20611 33.5486 4.45941L28.2243 19.5475C29.525 20.0065 30.8801 20.1919 32.2114 20.1177L31.3211 4.14252Z" fill="white" mask="url(#path-10-inside-3)"/>
<path d="M18.1858 8.59192C18.1858 7.63309 18.9632 6.85571 19.922 6.85571C20.8808 6.85571 21.6582 7.63309 21.6582 8.59192C21.6582 9.55075 20.8808 10.3281 19.922 10.3281C18.9632 10.3281 18.1858 9.55075 18.1858 8.59192Z" fill="white" stroke="white" stroke-width="8"/>
<mask id="path-13-inside-4" fill="white">
<path d="M21.5318 10.0507C20.2815 10.0507 19.268 9.03717 19.268 7.78687C19.268 7.23267 19.4673 6.72516 19.7981 6.33148C18.6055 6.39587 17.6582 7.38312 17.6582 8.59192C17.6582 9.84192 18.6717 10.8554 19.922 10.8554C20.6178 10.8554 21.24 10.5414 21.6554 10.0473C21.6145 10.0494 21.5733 10.0507 21.5318 10.0507Z"/>
</mask>
<path d="M21.5318 10.0507C20.2815 10.0507 19.268 9.03717 19.268 7.78687C19.268 7.23267 19.4673 6.72516 19.7981 6.33148C18.6055 6.39587 17.6582 7.38312 17.6582 8.59192C17.6582 9.84192 18.6717 10.8554 19.922 10.8554C20.6178 10.8554 21.24 10.5414 21.6554 10.0473C21.6145 10.0494 21.5733 10.0507 21.5318 10.0507Z" fill="white"/>
<path d="M19.7981 6.33148L25.9228 11.4781L37.7964 -2.65193L19.3668 -1.65688L19.7981 6.33148ZM21.6554 10.0473L27.7791 15.1951L39.6302 1.09744L21.2381 2.0582L21.6554 10.0473ZM21.5318 2.05066C24.6998 2.05066 27.268 4.61891 27.268 7.78687H11.268C11.268 13.4554 15.8632 18.0507 21.5318 18.0507V2.05066ZM27.268 7.78687C27.268 9.18687 26.7565 10.486 25.9228 11.4781L13.6734 1.18484C12.1781 2.96429 11.268 5.27846 11.268 7.78687H27.268ZM19.3668 -1.65688C13.9537 -1.36462 9.6582 3.10843 9.6582 8.59192H25.6582C25.6582 11.6578 23.2573 14.1564 20.2294 14.3198L19.3668 -1.65688ZM9.6582 8.59192C9.6582 14.2609 14.2541 18.8554 19.922 18.8554V2.85541C23.0893 2.85541 25.6582 5.42295 25.6582 8.59192H9.6582ZM19.922 18.8554C23.0811 18.8554 25.91 17.4185 27.7791 15.1951L15.5317 4.89947C16.5701 3.66422 18.1544 2.85541 19.922 2.85541V18.8554ZM21.2381 2.0582C21.3177 2.05403 21.4168 2.05066 21.5318 2.05066V18.0507C21.7298 18.0507 21.9113 18.0448 22.0727 18.0364L21.2381 2.0582Z" fill="white" mask="url(#path-13-inside-4)"/>
<path d="M35.9216 16.7953C35.9216 15.8365 36.699 15.0591 37.6578 15.0591C38.6167 15.0591 39.394 15.8365 39.394 16.7953C39.394 17.7548 38.6163 18.5319 37.6578 18.5319C36.6994 18.5319 35.9216 17.7548 35.9216 16.7953Z" fill="white" stroke="white" stroke-width="8"/>
<mask id="path-16-inside-5" fill="white">
<path d="M39.2676 18.2544C38.0173 18.2544 37.0038 17.2409 37.0038 15.9906C37.0038 15.4364 37.2034 14.9289 37.5342 14.5352C36.3416 14.5996 35.394 15.5869 35.394 16.7953C35.394 18.0457 36.4075 19.0591 37.6578 19.0591C38.3539 19.0591 38.9759 18.7448 39.3912 18.251C39.3503 18.2532 39.3091 18.2544 39.2676 18.2544Z"/>
</mask>
<path d="M39.2676 18.2544C38.0173 18.2544 37.0038 17.2409 37.0038 15.9906C37.0038 15.4364 37.2034 14.9289 37.5342 14.5352C36.3416 14.5996 35.394 15.5869 35.394 16.7953C35.394 18.0457 36.4075 19.0591 37.6578 19.0591C38.3539 19.0591 38.9759 18.7448 39.3912 18.251C39.3503 18.2532 39.3091 18.2544 39.2676 18.2544Z" fill="white"/>
<path d="M37.5342 14.5352L43.6589 19.6819L55.5326 5.5518L37.1029 6.54685L37.5342 14.5352ZM39.3912 18.251L45.5134 23.4007L57.3737 9.30074L38.9739 10.2619L39.3912 18.251ZM39.2676 10.2544C42.4356 10.2544 45.0038 12.8226 45.0038 15.9906H29.0038C29.0038 21.6592 33.599 26.2544 39.2676 26.2544V10.2544ZM45.0038 15.9906C45.0038 17.3937 44.4906 18.6922 43.6589 19.6819L31.4095 9.38857C29.9163 11.1656 29.0038 13.4791 29.0038 15.9906H45.0038ZM37.1029 6.54685C31.6919 6.839 27.394 11.31 27.394 16.7953H43.394C43.394 19.8637 40.9913 22.3602 37.9655 22.5236L37.1029 6.54685ZM27.394 16.7953C27.394 22.4639 31.9892 27.0591 37.6578 27.0591V11.0591C40.8258 11.0591 43.394 13.6274 43.394 16.7953H27.394ZM37.6578 27.0591C40.82 27.0591 43.6467 25.6199 45.5134 23.4007L33.2691 13.1013C34.3051 11.8697 35.8879 11.0591 37.6578 11.0591V27.0591ZM38.9739 10.2619C39.0536 10.2578 39.1527 10.2544 39.2676 10.2544V26.2544C39.4656 26.2544 39.6471 26.2486 39.8086 26.2401L38.9739 10.2619Z" fill="white" mask="url(#path-16-inside-5)"/>
<path d="M0.449463 16.7953C0.449463 15.8365 1.22684 15.0591 2.18567 15.0591C3.1445 15.0591 3.92188 15.8365 3.92188 16.7953C3.92188 17.7548 3.14415 18.5319 2.18567 18.5319C1.22719 18.5319 0.449463 17.7548 0.449463 16.7953Z" fill="white" stroke="white" stroke-width="8"/>
<mask id="path-19-inside-6" fill="white">
<path d="M3.79517 18.2544C2.54517 18.2544 1.53168 17.2409 1.53168 15.9906C1.53168 15.4364 1.73096 14.9289 2.06177 14.5352C0.869141 14.5996 -0.078125 15.5869 -0.078125 16.7953C-0.078125 18.0457 0.935364 19.0591 2.18567 19.0591C2.88147 19.0591 3.50372 18.7448 3.91907 18.251C3.87787 18.2532 3.83667 18.2544 3.79517 18.2544Z"/>
</mask>
<path d="M3.79517 18.2544C2.54517 18.2544 1.53168 17.2409 1.53168 15.9906C1.53168 15.4364 1.73096 14.9289 2.06177 14.5352C0.869141 14.5996 -0.078125 15.5869 -0.078125 16.7953C-0.078125 18.0457 0.935364 19.0591 2.18567 19.0591C2.88147 19.0591 3.50372 18.7448 3.91907 18.251C3.87787 18.2532 3.83667 18.2544 3.79517 18.2544Z" fill="white"/>
<path d="M2.06177 14.5352L8.18647 19.6819L20.0601 5.5518L1.63046 6.54685L2.06177 14.5352ZM3.91907 18.251L10.0412 23.4007L21.8953 9.30818L3.5048 10.2618L3.91907 18.251ZM3.79517 10.2544C6.96415 10.2544 9.53168 12.8233 9.53168 15.9906H-6.46832C-6.46832 21.6585 -1.87381 26.2544 3.79517 26.2544V10.2544ZM9.53168 15.9906C9.53168 17.3906 9.02014 18.6898 8.18647 19.6819L-4.06294 9.38857C-5.55823 11.168 -6.46832 13.4822 -6.46832 15.9906H9.53168ZM1.63046 6.54685C-3.78196 6.83908 -8.07812 11.3115 -8.07812 16.7953H7.92188C7.92188 19.8622 5.52024 22.3601 2.49307 22.5236L1.63046 6.54685ZM-8.07812 16.7953C-8.07812 22.4639 -3.48291 27.0591 2.18567 27.0591V11.0591C5.35364 11.0591 7.92188 13.6274 7.92188 16.7953H-8.07812ZM2.18567 27.0591C5.34692 27.0591 8.17412 25.6204 10.0412 23.4007L-2.20307 13.1013C-1.16668 11.8692 0.416016 11.0591 2.18567 11.0591V27.0591ZM3.5048 10.2618C3.58155 10.2578 3.67981 10.2544 3.79517 10.2544V26.2544C3.99353 26.2544 4.17419 26.2486 4.33333 26.2403L3.5048 10.2618Z" fill="white" mask="url(#path-19-inside-6)"/>
</g>
<defs>
<clipPath id="clip0">
<rect width="40" height="40" fill="white"/>
</clipPath>
</defs>
</svg>
