<svg width="80" height="80" viewBox="0 0 80 80" fill="none" xmlns="http://www.w3.org/2000/svg">
<g clip-path="url(#clip0)">
<path d="M24.3465 26.4646C26.3533 28.7214 29.0931 31.3629 32.3049 33.2751L25.4693 39.2623H17.013C18.4481 35.708 18.9811 31.8067 19.1519 28.6702C19.2566 26.7475 19.2271 25.0702 19.1713 23.8713C19.1584 23.5926 19.144 23.3394 19.1295 23.1146L21.1179 22.4106C21.2298 22.5686 21.355 22.7429 21.4928 22.9315C22.1605 23.8446 23.1307 25.0974 24.3465 26.4646Z" stroke="#838383" stroke-width="3"/>
<path d="M47.3831 33.2751C50.5949 31.3629 53.3347 28.7214 55.3415 26.4646C56.5573 25.0974 57.5274 23.8446 58.1952 22.9315C58.333 22.7429 58.4582 22.5686 58.5701 22.4106L60.5585 23.1146C60.544 23.3394 60.5296 23.5926 60.5167 23.8713C60.4609 25.0702 60.4314 26.7475 60.5361 28.6702C60.7069 31.8067 61.2399 35.708 62.675 39.2623H54.2187L47.3831 33.2751Z" stroke="#838383" stroke-width="3"/>
<path d="M9.29786 39.393C8.85557 38.547 8.43444 37.7757 8.04779 37.0888C12.9591 40.3498 17.6118 41.6627 21.9853 41.1679C27.3514 40.5609 31.3145 37.3417 34.0673 33.9201C36.8213 30.4969 38.6709 26.5076 39.8181 23.501C39.8267 23.4784 39.8353 23.4558 39.8439 23.4333C39.8524 23.4558 39.861 23.4784 39.8697 23.501C41.0169 26.5076 42.8664 30.4969 45.6205 33.9201C48.3732 37.3417 52.3363 40.5609 57.7025 41.1679C62.076 41.6627 66.7287 40.3498 71.64 37.0888C71.2533 37.7757 70.8322 38.547 70.3899 39.393C68.7452 42.5385 66.7785 46.7708 65.2115 51.5622L39.8439 57.1493L14.4762 51.5622C12.9093 46.7707 10.9425 42.5385 9.29786 39.393Z" fill="#838383" stroke="#838383" stroke-width="8"/>
<path d="M16.9969 62.7626C16.8522 61.4813 16.6548 60.2136 16.415 58.967H63.2732C63.0335 60.2136 62.8361 61.4813 62.6913 62.7626L62.6911 62.7642C62.642 63.2004 62.2756 63.5244 61.8442 63.5244H17.844C17.4127 63.5244 17.0462 63.2004 16.9971 62.7642L16.9969 62.7626Z" fill="#838383" stroke="#838383" stroke-width="8"/>
<path d="M20.1503 21.3483C20.1503 21.6397 19.9142 21.8759 19.6227 21.8759C19.3322 21.8759 19.0957 21.6401 19.0957 21.3483C19.0957 21.0574 19.3318 20.8213 19.6227 20.8213C19.9145 20.8213 20.1503 21.0578 20.1503 21.3483Z" fill="#838383" stroke="#838383" stroke-width="8"/>
<mask id="path-6-inside-1" fill="white">
<path d="M18.5751 21.25C18.0203 19.6832 18.3804 18.0157 19.3753 16.828C18.9547 16.8512 18.5299 16.933 18.1124 17.0807C15.7553 17.915 14.5211 20.5023 15.3555 22.8595C16.1898 25.2167 18.7771 26.4508 21.1343 25.6165C21.9247 25.3369 22.5881 24.859 23.0905 24.2596C21.1349 24.3677 19.2617 23.1897 18.5751 21.25Z"/>
</mask>
<path d="M18.5751 21.25C18.0203 19.6832 18.3804 18.0157 19.3753 16.828C18.9547 16.8512 18.5299 16.933 18.1124 17.0807C15.7553 17.915 14.5211 20.5023 15.3555 22.8595C16.1898 25.2167 18.7771 26.4508 21.1343 25.6165C21.9247 25.3369 22.5881 24.859 23.0905 24.2596C21.1349 24.3677 19.2617 23.1897 18.5751 21.25Z" fill="#838383"/>
<path d="M18.5751 21.25L26.1165 18.5804L26.1162 18.5796L18.5751 21.25ZM19.3753 16.828L25.5081 21.965L37.3525 7.82436L18.9347 8.84014L19.3753 16.828ZM18.1124 17.0807L15.4441 9.5388L15.443 9.53919L18.1124 17.0807ZM15.3555 22.8595L22.897 20.1901L22.897 20.1901L15.3555 22.8595ZM21.1343 25.6165L18.4669 18.0743L18.4649 18.075L21.1343 25.6165ZM23.0905 24.2596L29.2219 29.3983L41.0761 15.2539L22.6492 16.2718L23.0905 24.2596ZM26.1162 18.5796C26.5462 19.7938 26.2528 21.0759 25.5081 21.965L13.2424 11.691C10.508 14.9556 9.49434 19.5726 11.0339 23.9204L26.1162 18.5796ZM18.9347 8.84014C17.7749 8.90411 16.5986 9.13036 15.4441 9.5388L20.7808 24.6226C20.4613 24.7356 20.1345 24.7983 19.8158 24.8159L18.9347 8.84014ZM15.443 9.53919C8.91974 11.8482 5.50573 19.0077 7.81398 25.5289L22.897 20.1901C23.5365 21.9969 22.5908 23.9819 20.7818 24.6222L15.443 9.53919ZM7.81398 25.5289C10.123 32.0522 17.2825 35.4662 23.8037 33.158L18.4649 18.075C20.2717 17.4354 22.2567 18.3812 22.897 20.1901L7.81398 25.5289ZM23.8017 33.1587C25.9862 32.3861 27.8319 31.0568 29.2219 29.3983L16.959 19.121C17.3444 18.6612 17.8632 18.2878 18.4669 18.0743L23.8017 33.1587ZM22.6492 16.2718C24.1402 16.1895 25.5849 17.0785 26.1165 18.5804L11.0337 23.9196C12.9386 29.3009 18.1296 32.5459 23.5317 32.2475L22.6492 16.2718Z" fill="#838383" mask="url(#path-6-inside-1)"/>
<path d="M60.5917 21.3483C60.5917 21.6401 60.3552 21.8759 60.0647 21.8759C59.7732 21.8759 59.5371 21.6397 59.5371 21.3483C59.5371 21.0578 59.7729 20.8213 60.0647 20.8213C60.3556 20.8213 60.5917 21.0574 60.5917 21.3483Z" fill="#838383" stroke="#838383" stroke-width="8"/>
<mask id="path-9-inside-2" fill="white">
<path d="M61.7729 24.007C59.4163 23.1726 58.1815 20.5847 59.0159 18.2281C59.2027 17.7014 59.4767 17.2314 59.8161 16.8274C58.0473 16.925 56.4249 18.0627 55.7969 19.8376C54.9625 22.1948 56.1967 24.7821 58.5539 25.6165C60.3843 26.2647 62.3533 25.6647 63.5325 24.2603C62.9521 24.2926 62.3557 24.2126 61.7729 24.007Z"/>
</mask>
<path d="M61.7729 24.007L59.1028 31.5483L59.1107 31.551L61.7729 24.007ZM59.0159 18.2281L51.4759 15.5546L51.4746 15.5581L59.0159 18.2281ZM59.8161 16.8274L65.9421 21.9725L77.8278 7.82077L59.3751 8.83956L59.8161 16.8274ZM55.7969 19.8376L63.3384 22.5071L63.3387 22.5063L55.7969 19.8376ZM58.5539 25.6165L61.2243 18.0753L61.2233 18.075L58.5539 25.6165ZM63.5325 24.2603L69.6592 29.4045L81.5491 15.2438L63.0874 16.2727L63.5325 24.2603ZM64.4429 16.4657C66.2507 17.1057 67.1976 19.0892 66.5572 20.8982L51.4746 15.5581C49.1654 22.0802 52.5819 29.2395 59.1028 31.5482L64.4429 16.4657ZM66.5559 20.9017C66.4172 21.2929 66.207 21.6571 65.9421 21.9725L53.6901 11.6823C52.7464 12.8058 51.9881 14.11 51.4759 15.5546L66.5559 20.9017ZM59.3751 8.83956C54.4979 9.10883 49.998 12.2436 48.2551 17.169L63.3387 22.5063C62.8519 23.8819 61.5966 24.7413 60.2571 24.8152L59.3751 8.83956ZM48.2554 17.1682C45.9471 23.6894 49.3612 30.849 55.8845 33.158L61.2233 18.075C63.0322 18.7152 63.9779 20.7002 63.3384 22.5071L48.2554 17.1682ZM55.8834 33.1576C60.9619 34.956 66.4054 33.2798 69.6592 29.4045L57.4058 19.116C58.3012 18.0496 59.8067 17.5733 61.2243 18.0753L55.8834 33.1576ZM63.0874 16.2727C63.548 16.247 64.0086 16.3124 64.435 16.4629L59.1107 31.551C60.7028 32.1129 62.3561 32.3382 63.9777 32.2479L63.0874 16.2727Z" fill="#838383" mask="url(#path-9-inside-2)"/>
<path d="M40.3716 17.1838C40.3716 17.4753 40.1355 17.7114 39.844 17.7114C39.5525 17.7114 39.3164 17.4753 39.3164 17.1838C39.3164 16.8924 39.5525 16.6562 39.844 16.6562C40.1355 16.6562 40.3716 16.8924 40.3716 17.1838Z" fill="#838383" stroke="#838383" stroke-width="8"/>
<mask id="path-12-inside-3" fill="white">
<path d="M43.0636 20.1013C40.563 20.1013 38.536 18.0743 38.536 15.5737C38.536 14.4653 38.9346 13.4503 39.5962 12.663C37.2109 12.7917 35.3164 14.7662 35.3164 17.1838C35.3164 19.6838 37.3434 21.7108 39.844 21.7108C41.2356 21.7108 42.4801 21.0828 43.3108 20.0946C43.229 20.0989 43.1466 20.1013 43.0636 20.1013Z"/>
</mask>
<path d="M43.0636 20.1013C40.563 20.1013 38.536 18.0743 38.536 15.5737C38.536 14.4653 38.9346 13.4503 39.5962 12.663C37.2109 12.7917 35.3164 14.7662 35.3164 17.1838C35.3164 19.6838 37.3434 21.7108 39.844 21.7108C41.2356 21.7108 42.4801 21.0828 43.3108 20.0946C43.229 20.0989 43.1466 20.1013 43.0636 20.1013Z" fill="#838383"/>
<path d="M39.5962 12.663L45.7209 17.8096L57.5945 3.67955L39.1649 4.6746L39.5962 12.663ZM43.3108 20.0946L49.4345 25.2424L61.2856 11.1447L42.8934 12.1055L43.3108 20.0946ZM43.0636 12.1013C44.9813 12.1013 46.536 13.6561 46.536 15.5737H30.536C30.536 22.4926 36.1447 28.1013 43.0636 28.1013V12.1013ZM46.536 15.5737C46.536 16.4195 46.2238 17.2112 45.7209 17.8096L33.4715 7.51632C31.6454 9.68945 30.536 12.5111 30.536 15.5737H46.536ZM39.1649 4.6746C32.5591 5.03126 27.3164 10.4916 27.3164 17.1838H43.3164C43.3164 19.0409 41.8627 20.5522 40.0275 20.6513L39.1649 4.6746ZM27.3164 17.1838C27.3164 24.1028 32.9258 29.7108 39.844 29.7108V13.7108C41.761 13.7108 43.3164 15.2649 43.3164 17.1838H27.3164ZM39.844 29.7108C43.6989 29.7108 47.1501 27.9599 49.4345 25.2424L37.1871 14.9468C37.8101 14.2056 38.7722 13.7108 39.844 13.7108V29.7108ZM42.8934 12.1055C42.9322 12.1035 42.9901 12.1013 43.0636 12.1013V28.1013C43.3031 28.1013 43.5258 28.0943 43.7281 28.0837L42.8934 12.1055Z" fill="#838383" mask="url(#path-12-inside-3)"/>
<path d="M75.8433 33.5907C75.8433 33.8822 75.6071 34.1183 75.3157 34.1183C75.0242 34.1183 74.7881 33.8822 74.7881 33.5907C74.7881 33.3002 75.0239 33.0637 75.3157 33.0637C75.6075 33.0637 75.8433 33.3002 75.8433 33.5907Z" fill="#838383" stroke="#838383" stroke-width="8"/>
<mask id="path-15-inside-4" fill="white">
<path d="M78.5353 36.5088C76.0347 36.5088 74.0077 34.4818 74.0077 31.9812C74.0077 30.8728 74.4069 29.8578 75.0685 29.0704C72.6832 29.1992 70.7881 31.1737 70.7881 33.5907C70.7881 36.0913 72.8151 38.1183 75.3157 38.1183C76.7079 38.1183 77.9518 37.4896 78.7825 36.5021C78.7007 36.5063 78.6183 36.5088 78.5353 36.5088Z"/>
</mask>
<path d="M78.5353 36.5088C76.0347 36.5088 74.0077 34.4818 74.0077 31.9812C74.0077 30.8728 74.4069 29.8578 75.0685 29.0704C72.6832 29.1992 70.7881 31.1737 70.7881 33.5907C70.7881 36.0913 72.8151 38.1183 75.3157 38.1183C76.7079 38.1183 77.9518 37.4896 78.7825 36.5021C78.7007 36.5063 78.6183 36.5088 78.5353 36.5088Z" fill="#838383"/>
<path d="M75.0685 29.0704L81.1932 34.2171L93.0668 20.087L74.6372 21.0821L75.0685 29.0704ZM78.7825 36.5021L84.9046 41.6518L96.765 27.5518L78.3651 28.513L78.7825 36.5021ZM78.5353 28.5088C80.453 28.5088 82.0077 30.0635 82.0077 31.9812H66.0077C66.0077 38.9001 71.6164 44.5088 78.5353 44.5088V28.5088ZM82.0077 31.9812C82.0077 32.8301 81.694 33.6211 81.1932 34.2171L68.9438 23.9238C67.1197 26.0945 66.0077 28.9156 66.0077 31.9812H82.0077ZM74.6372 21.0821C68.0336 21.4386 62.7881 26.8969 62.7881 33.5907H78.7881C78.7881 35.4505 77.3329 36.9598 75.4998 37.0588L74.6372 21.0821ZM62.7881 33.5907C62.7881 40.5096 68.3968 46.1183 75.3157 46.1183V30.1183C77.2334 30.1183 78.7881 31.673 78.7881 33.5907H62.7881ZM75.3157 46.1183C79.1739 46.1183 82.6226 44.3647 84.9046 41.6518L72.6603 31.3524C73.281 30.6145 74.2418 30.1183 75.3157 30.1183V46.1183ZM78.3651 28.513C78.4039 28.5109 78.4618 28.5088 78.5353 28.5088V44.5088C78.7748 44.5088 78.9974 44.5018 79.1998 44.4912L78.3651 28.513Z" fill="#838383" mask="url(#path-15-inside-4)"/>
<path d="M4.89893 33.5907C4.89893 33.8822 4.66281 34.1183 4.37134 34.1183C4.07987 34.1183 3.84375 33.8822 3.84375 33.5907C3.84375 33.3002 4.07952 33.0637 4.37134 33.0637C4.66316 33.0637 4.89893 33.3002 4.89893 33.5907Z" fill="#838383" stroke="#838383" stroke-width="8"/>
<mask id="path-18-inside-5" fill="white">
<path d="M7.59033 36.5088C5.09033 36.5088 3.06335 34.4818 3.06335 31.9812C3.06335 30.8728 3.46191 29.8578 4.12354 29.0704C1.73828 29.1992 -0.15625 31.1737 -0.15625 33.5907C-0.15625 36.0913 1.87073 38.1183 4.37134 38.1183C5.76294 38.1183 7.00745 37.4896 7.83813 36.5021C7.75574 36.5063 7.67334 36.5088 7.59033 36.5088Z"/>
</mask>
<path d="M7.59033 36.5088C5.09033 36.5088 3.06335 34.4818 3.06335 31.9812C3.06335 30.8728 3.46191 29.8578 4.12354 29.0704C1.73828 29.1992 -0.15625 31.1737 -0.15625 33.5907C-0.15625 36.0913 1.87073 38.1183 4.37134 38.1183C5.76294 38.1183 7.00745 37.4896 7.83813 36.5021C7.75574 36.5063 7.67334 36.5088 7.59033 36.5088Z" fill="#838383"/>
<path d="M4.12354 29.0704L10.2482 34.2171L22.1219 20.087L3.69223 21.0821L4.12354 29.0704ZM7.83813 36.5021L13.9603 41.6518L25.8144 27.5592L7.42387 28.5128L7.83813 36.5021ZM7.59033 28.5088C9.50931 28.5088 11.0634 30.0642 11.0634 31.9812H-4.93665C-4.93665 38.8994 0.671352 44.5088 7.59033 44.5088V28.5088ZM11.0634 31.9812C11.0634 32.827 10.7511 33.6187 10.2482 34.2171L-2.00117 23.9238C-3.82727 26.0969 -4.93665 28.9186 -4.93665 31.9812H11.0634ZM3.69223 21.0821C-2.91282 21.4387 -8.15625 26.8983 -8.15625 33.5907H7.84375C7.84375 35.4491 6.38938 36.9597 4.55484 37.0588L3.69223 21.0821ZM-8.15625 33.5907C-8.15625 40.5096 -2.54755 46.1183 4.37134 46.1183V30.1183C6.28901 30.1183 7.84375 31.673 7.84375 33.5907H-8.15625ZM4.37134 46.1183C8.22839 46.1183 11.6778 44.3652 13.9603 41.6518L1.716 31.3524C2.33705 30.614 3.29749 30.1183 4.37134 30.1183V46.1183ZM7.42387 28.5128C7.45941 28.511 7.51648 28.5088 7.59033 28.5088V44.5088C7.8302 44.5088 8.05206 44.5017 8.2524 44.4913L7.42387 28.5128Z" fill="#838383" mask="url(#path-18-inside-5)"/>
</g>
<defs>
<clipPath id="clip0">
<rect width="80" height="80" fill="white"/>
</clipPath>
</defs>
</svg>
