﻿{
  "iisSettings": {
    "windowsAuthentication": false, 
    "anonymousAuthentication": true, 
    "iisExpress": {
      "applicationUrl": "http://localhost:53119",
      "sslPort": 44391
    }
  },
  "profiles": {
    "IIS Express": {
      "commandName": "IISExpress",
      "launchBrowser": true,
      "environmentVariables": {
        "ASPNETCORE_ENVIRONMENT": "Development"
      }
    },
    "KidInteractiveAdmin": {
      "commandName": "Project",
      "launchBrowser": true,
      "applicationUrl": "https://localhost:5021;http://localhost:5020",
      "environmentVariables": {
        "ASPNETCORE_ENVIRONMENT": "Development"
      }
    }
  }
}