<svg width="46" height="46" viewBox="0 0 46 46" fill="none" xmlns="http://www.w3.org/2000/svg">
<path d="M10.6609 32.9356C5.17414 32.9356 0.726624 28.488 0.726624 23.0013C0.726624 17.5145 5.17414 13.067 10.6609 13.067C16.1477 13.067 20.5952 17.5145 20.5952 23.0013C20.5907 28.4858 16.1455 32.9311 10.6609 32.9356ZM10.6609 16.5484C7.09299 16.5484 4.20066 19.4407 4.20066 23.0087C4.20066 26.5766 7.09299 29.4689 10.6609 29.4689C14.2288 29.4689 17.1211 26.5766 17.1211 23.0087C17.1211 23.0064 17.1211 23.0035 17.1211 23.0013C17.1167 19.4348 14.2273 16.5455 10.6609 16.541V16.5484Z" fill="white"/>
<path d="M20.5804 22.2621L20.4917 21.6264C20.1879 19.4104 19.1464 17.3615 17.5351 15.8093L16.2046 14.5379H29.7829L28.4524 15.8093C26.8411 17.3615 25.7996 19.4104 25.4958 21.6264L25.4071 22.2621H20.5804Z" fill="white"/>
<path d="M10.6609 29.4616C7.09295 29.4616 4.20062 26.5693 4.20062 23.0013C4.20062 19.4334 7.09295 16.5411 10.6609 16.5411C14.2288 16.5411 17.1211 19.4334 17.1211 23.0013C17.1167 26.5678 14.2273 29.4571 10.6609 29.4616Z" fill="white"/>
<path d="M35.3192 29.4615C31.7513 29.466 28.856 26.5766 28.8516 23.0087C28.8471 19.4408 31.7365 16.5455 35.3044 16.5411C38.8723 16.5366 41.7676 19.426 41.772 22.9939C41.772 22.9961 41.772 22.9991 41.772 23.0013C41.7683 26.5648 38.8827 29.4534 35.3192 29.4615Z" fill="white"/>
<path d="M35.3192 32.9356C29.8324 32.9356 25.3849 28.488 25.3849 23.0013C25.3849 17.5145 29.8324 13.067 35.3192 13.067C40.8059 13.067 45.2534 17.5145 45.2534 23.0013C45.249 28.4858 40.8037 32.9311 35.3192 32.9356ZM35.3192 16.5484C31.7513 16.544 28.856 19.4334 28.8515 23.0013C28.8471 26.5692 31.7365 29.4645 35.3044 29.4689C38.8723 29.4733 41.7676 26.584 41.772 23.0161C41.772 23.0109 41.772 23.0064 41.772 23.0013C41.7683 19.4378 38.8826 16.5492 35.3192 16.541V16.5484Z" fill="white"/>
<path d="M35.3192 12.3278C33.4107 12.3227 31.5362 12.8334 29.8938 13.8062H16.0863C11.012 10.814 4.4734 12.5015 1.48056 17.5759C-1.51229 22.6502 0.175944 29.1888 5.25026 32.1809C10.3246 35.173 16.8632 33.4855 19.856 28.4112C20.8228 26.7717 21.3336 24.9039 21.3343 23.0005H24.6531C24.6531 28.8953 29.4318 33.674 35.3266 33.674C41.2214 33.674 46 28.8961 46 23.0013C46 17.1065 41.2214 12.3278 35.3266 12.3278C35.3244 12.3278 35.3214 12.3278 35.3192 12.3278ZM10.6609 32.1964C5.58288 32.1964 1.46577 28.0793 1.46577 23.0013C1.46577 17.9233 5.58288 13.8062 10.6609 13.8062C15.7389 13.8062 19.856 17.9233 19.856 23.0013C19.8516 28.0778 15.7374 32.192 10.6609 32.1964ZM21.2235 21.523C20.899 19.1384 19.7762 16.9343 18.0377 15.2697H27.9424C26.2039 16.9343 25.0811 19.1384 24.7566 21.523H21.2235ZM35.3192 32.1964C30.2412 32.1964 26.1241 28.0793 26.1241 23.0013C26.1241 17.9233 30.2412 13.8062 35.3192 13.8062C40.3972 13.8062 44.5143 17.9233 44.5143 23.0013C44.5099 28.0778 40.3957 32.192 35.3192 32.1964Z" fill="#3874BC"/>
<path d="M10.6609 15.8019C6.68495 15.8019 3.46149 19.0253 3.46149 23.0013C3.46149 26.9772 6.68495 30.2007 10.6609 30.2007C14.6368 30.2007 17.8603 26.9772 17.8603 23.0013C17.8558 19.0268 14.6353 15.8063 10.6609 15.8019ZM10.6609 28.715C7.50098 28.715 4.9398 26.1538 4.9398 22.9939C4.9398 19.834 7.50098 17.2728 10.6609 17.2728C13.8208 17.2728 16.382 19.834 16.382 22.9939C16.382 22.9961 16.382 22.9991 16.382 23.0013C16.382 26.1612 13.8208 28.7224 10.6609 28.7224V28.715Z" fill="#3874BC"/>
<path d="M35.3192 15.8019C31.3433 15.7974 28.1169 19.018 28.1124 22.9939C28.108 26.9698 31.3285 30.1962 35.3044 30.2007C39.2804 30.2051 42.5068 26.9846 42.5112 23.0087C42.5112 23.0065 42.5112 23.0035 42.5112 23.0013C42.5068 19.0298 39.2907 15.81 35.3192 15.8019ZM35.3192 28.715C32.1593 28.7194 29.5952 26.1612 29.5907 23.0013C29.5863 19.8414 32.1445 17.2772 35.3044 17.2728C38.4643 17.2684 41.0285 19.8266 41.0329 22.9865C41.0329 22.9917 41.0329 22.9961 41.0329 23.0013C41.0329 26.1582 38.4762 28.7179 35.3192 28.7224V28.715Z" fill="#3874BC"/>
</svg>
