<svg width="80" height="80" viewBox="0 0 80 80" fill="none" xmlns="http://www.w3.org/2000/svg">
<g clip-path="url(#clip0)">
<path d="M76 58.6677H63.3333C62.4275 57.7211 61.4649 56.8305 60.4507 56.001C58.8031 54.6839 57.2948 53.2015 55.9493 51.577C54.3656 49.7537 53.2114 47.598 52.572 45.269C54.4 45.1864 55.6387 45.0277 56.5013 44.9144C57.434 44.6263 58.4434 44.7262 59.3013 45.1917C60.0319 45.5995 60.7099 46.0952 61.32 46.6677C62.8989 48.324 65.0723 49.2835 67.36 49.3344C73.548 49.3344 75.96 46.3437 75.96 38.6677C75.96 35.3597 72.9333 30.9344 69.276 26.801C69.3453 26.801 69.4227 26.8144 69.492 26.8144C71.2844 26.8661 73.0542 26.4034 74.592 25.481C76.767 23.9853 78.2302 21.6599 78.6373 19.0517C78.7294 18.6244 78.6062 18.179 78.3074 17.8598C78.0087 17.5406 77.5725 17.3881 77.14 17.4517C73.9659 17.7543 70.8249 16.6078 68.592 14.3317C71.1617 10.4476 72.8919 6.06975 73.672 1.47837C73.721 1.02654 73.5365 0.580855 73.1825 0.295888C72.8284 0.0109205 72.3536 -0.0740764 71.9227 0.0703744C68.3913 1.31077 65.0381 3.00975 61.9493 5.12371C60.2377 3.91576 58.1382 3.38731 56.0587 3.64104C54.7345 3.81971 53.4871 4.36671 52.4587 5.21971C51.8727 4.58469 51.1443 4.09798 50.3333 3.79971C48.7693 3.31469 47.0828 4.02246 46.3333 5.47837C44.5968 4.49814 42.6341 3.98886 40.64 4.00104C36.0853 4.00104 33.6133 7.45171 32.5467 10.3104C29.3499 8.44892 25.304 8.94852 22.656 11.5317C19.897 13.8888 18.6331 17.5567 19.3547 21.113C14.3036 21.2157 9.95866 24.7157 8.78267 29.629C7.35458 34.0869 7.91164 38.9436 10.312 42.9624C7.47067 44.0677 2.62667 47.0957 2.62667 54.909C2.62518 56.2168 2.86473 57.5135 3.33333 58.7344C1.41274 59.059 0.00522131 60.7199 0 62.6677V76.0011C0 78.2102 1.79086 80.0011 4 80.0011H76C78.2091 80.0011 80 78.2102 80 76.0011V62.6677C80 60.4586 78.2091 58.6677 76 58.6677ZM69.3333 77.3344H66.6667V61.3344H69.3333V77.3344ZM64 61.3344V77.3344H16V61.3344H64ZM75.5373 20.157C75.1034 21.4093 74.273 22.4859 73.172 23.2237C71.5907 24.217 69.328 24.397 66.4613 23.7784C65.4587 22.753 64.4613 21.7717 63.4907 20.8597C64.7741 19.5153 65.9687 18.0887 67.0667 16.589C69.3593 18.7736 72.3726 20.0429 75.5373 20.157ZM58.9493 10.681C60.9163 11.6622 63.0873 12.1647 65.2853 12.1477C65.788 12.1477 66.3173 12.113 66.86 12.0597C66.5373 12.6024 66.1933 13.1517 65.8227 13.7117C64.5495 15.61 63.1144 17.3944 61.5333 19.045C59.564 17.2584 57.9427 15.897 57.148 15.2424C57.0067 14.6797 56.7733 13.8317 56.4587 12.8544C57.1467 12.2237 57.9867 11.4797 58.9493 10.681ZM68.4467 9.09037C66.0978 9.68678 63.626 9.58624 61.3333 8.80104C61.7587 8.48371 62.1933 8.16371 62.6493 7.84371C65.1224 6.10834 67.7685 4.63381 70.5453 3.44371C70.0194 5.38598 69.3169 7.27608 68.4467 9.09037ZM56.412 6.29037C57.4801 6.16606 58.5614 6.35507 59.524 6.83437C57.9373 8.03438 56.568 9.17971 55.4627 10.1677C55.0598 9.19048 54.5871 8.24358 54.048 7.33437C54.7148 6.75829 55.5375 6.39309 56.412 6.28504V6.29037ZM49.4973 6.33704C51.5907 7.03837 53.7787 12.593 54.6627 16.3144C54.7305 16.6002 54.8908 16.8557 55.1187 17.041C60.1733 21.1477 73.2933 33.0517 73.2933 38.6677C73.2933 45.513 71.4627 46.6677 67.36 46.6677C65.7127 46.5968 64.1625 45.8688 63.056 44.6464C62.2808 43.9268 61.4175 43.3085 60.4867 42.8064C59.1562 42.1028 57.6134 41.9129 56.152 42.273C54.4417 42.5086 52.7183 42.6359 50.992 42.6544C50.6453 42.6664 50.2947 42.6704 49.9253 42.6664C44.0053 42.6664 43.792 36.6784 43.792 35.9997C43.792 35.2633 43.195 34.6664 42.4587 34.6664C41.7223 34.6664 41.1253 35.2633 41.1253 35.9997C41.1253 39.2184 42.9573 45.2944 49.8667 45.333C50.5138 48.2658 51.8895 50.9883 53.8667 53.2491C55.3187 55.0078 56.9467 56.6134 58.7253 58.041C58.9747 58.253 59.2053 58.461 59.448 58.669H22.6267V50.6677C22.6267 50.6171 22.6267 49.9784 22.692 48.8984C23.0662 41.7205 24.6817 34.6618 27.4667 28.0357C32.076 17.669 44.9573 16.0077 45.0853 15.9917C45.6992 15.9184 46.1822 15.4327 46.252 14.8184C46.5301 12.4511 47.1201 10.131 48.0067 7.91838C48.2667 7.37571 48.8973 6.14104 49.4973 6.33171V6.33704ZM12.7107 45.0144C13.2069 44.9428 13.621 44.5988 13.7825 44.1242C13.944 43.6496 13.8256 43.1244 13.476 42.765C13.3 42.581 9.164 38.161 11.3507 30.349C12.4002 26.0621 16.512 23.2554 20.8867 23.8397C21.3533 23.9101 21.822 23.7261 22.116 23.357C22.4127 22.9895 22.4928 22.4925 22.3267 22.0504C22.2493 21.841 20.46 16.8984 24.3827 13.5637C28.6147 9.96371 31.9827 13.113 32.3533 13.4797C32.7033 13.8374 33.224 13.969 33.7019 13.8206C34.1797 13.6722 34.5343 13.2687 34.62 12.7757C34.6667 12.5264 35.7507 6.66771 40.64 6.66771C42.2234 6.64695 43.782 7.06209 45.1453 7.86771C44.5002 9.69631 44.0327 11.5828 43.7493 13.501C40.3373 14.1317 29.512 16.8824 25.036 26.9477C22.1202 33.8697 20.4258 41.2445 20.028 48.745C19.96 49.913 19.96 50.6117 19.96 50.6637V58.6637H6.21733C5.59961 57.5074 5.28191 56.2146 5.29333 54.9037C5.29333 46.2557 12.4133 45.0597 12.7107 45.0144ZM2.66667 76.0011V62.6677C2.66667 61.9313 3.26362 61.3344 4 61.3344H8V77.3344H4C3.26362 77.3344 2.66667 76.7374 2.66667 76.0011ZM10.6667 61.3344H13.3333V77.3344H10.6667V61.3344ZM77.3333 76.0011C77.3333 76.7374 76.7364 77.3344 76 77.3344H72V61.3344H76C76.7364 61.3344 77.3333 61.9313 77.3333 62.6677V76.0011Z" fill="white"/>
<path d="M21.3333 73.3332H37.3333C38.8061 73.3332 40 72.1393 40 70.6666V67.9999C40 66.5272 38.8061 65.3333 37.3333 65.3333H21.3333C19.8606 65.3333 18.6667 66.5272 18.6667 67.9999V70.6666C18.6667 72.1393 19.8606 73.3332 21.3333 73.3332ZM21.3333 67.9999H37.3333V70.6666H21.3333V67.9999Z" fill="white"/>
<path d="M60 74.6667C60.7364 74.6667 61.3333 74.0697 61.3333 73.3333V65.3333C61.3333 64.597 60.7364 64 60 64C59.2636 64 58.6667 64.597 58.6667 65.3333V73.3333C58.6667 74.0697 59.2636 74.6667 60 74.6667Z" fill="white"/>
<path d="M54.6667 72.0001C55.403 72.0001 56 71.4031 56 70.6667V68.0001C56 67.2637 55.403 66.6667 54.6667 66.6667C53.9303 66.6667 53.3333 67.2637 53.3333 68.0001V70.6667C53.3333 71.4031 53.9303 72.0001 54.6667 72.0001Z" fill="white"/>
<path d="M50.232 28.9427C51.0209 28.0905 52.1294 27.606 53.2907 27.606C54.4519 27.606 55.5605 28.0905 56.3494 28.9427C56.8732 29.4473 57.7049 29.4389 58.2185 28.9238C58.7321 28.4088 58.7381 27.5771 58.232 27.0547C56.9566 25.6789 55.1654 24.897 53.2893 24.897C51.4133 24.897 49.6221 25.6789 48.3467 27.0547C47.8414 27.5778 47.8486 28.4094 48.3629 28.9237C48.8772 29.4381 49.7088 29.4453 50.232 28.94V28.9427Z" fill="white"/>
<path d="M70.6227 42.6667C71.359 42.6667 71.956 42.0697 71.956 41.3333C71.956 40.597 71.359 40 70.6227 40C69.8863 40 69.2893 40.597 69.2893 41.3333C69.2893 42.0697 69.8863 42.6667 70.6227 42.6667Z" fill="white"/>
<path d="M14.6666 0C13.9303 0 13.3333 0.596954 13.3333 1.33333V2.66667C13.3333 3.40305 13.9303 4 14.6666 4C15.403 4 16 3.40305 16 2.66667V1.33333C16 0.596954 15.403 0 14.6666 0Z" fill="white"/>
<path d="M17.3333 6.66667H18.6666C19.403 6.66667 20 6.06971 20 5.33333C20 4.59695 19.403 4 18.6666 4H17.3333C16.5969 4 16 4.59695 16 5.33333C16 6.06971 16.5969 6.66667 17.3333 6.66667Z" fill="white"/>
<path d="M13.3333 9.33341C13.3333 10.0698 13.9303 10.6667 14.6666 10.6667C15.403 10.6667 16 10.0698 16 9.33341V8.00008C16 7.2637 15.403 6.66675 14.6666 6.66675C13.9303 6.66675 13.3333 7.2637 13.3333 8.00008V9.33341Z" fill="white"/>
<path d="M12 4H10.6667C9.9303 4 9.33334 4.59695 9.33334 5.33333C9.33334 6.06971 9.9303 6.66667 10.6667 6.66667H12C12.7364 6.66667 13.3333 6.06971 13.3333 5.33333C13.3333 4.59695 12.7364 4 12 4Z" fill="white"/>
<path d="M5.33333 13.3333C4.59695 13.3333 4 13.9302 4 14.6666V15.9999C4 16.7363 4.59695 17.3332 5.33333 17.3332C6.06971 17.3332 6.66667 16.7363 6.66667 15.9999V14.6666C6.66667 13.9302 6.06971 13.3333 5.33333 13.3333Z" fill="white"/>
<path d="M8.00002 17.3333C7.26364 17.3333 6.66669 17.9302 6.66669 18.6666C6.66669 19.403 7.26364 19.9999 8.00002 19.9999H9.33335C10.0697 19.9999 10.6667 19.403 10.6667 18.6666C10.6667 17.9302 10.0697 17.3333 9.33335 17.3333H8.00002Z" fill="white"/>
<path d="M4 22.6667C4 23.403 4.59695 24 5.33333 24C6.06971 24 6.66667 23.403 6.66667 22.6667V21.3333C6.66667 20.597 6.06971 20 5.33333 20C4.59695 20 4 20.597 4 21.3333V22.6667Z" fill="white"/>
<path d="M2.66667 17.3333H1.33333C0.596954 17.3333 0 17.9302 0 18.6666C0 19.403 0.596954 19.9999 1.33333 19.9999H2.66667C3.40305 19.9999 4 19.403 4 18.6666C4 17.9302 3.40305 17.3333 2.66667 17.3333Z" fill="white"/>
</g>
<defs>
<clipPath id="clip0">
<rect width="80" height="80" fill="white"/>
</clipPath>
</defs>
</svg>
